Name,CyrillicName,Division,Event,Equipment,Sex,Tested,BirthDate,BodyweightKg,WeightClassKg,Squat1Kg,Squat2Kg,Squat3Kg,Best3SquatKg,Bench1Kg,Bench2Kg,Bench3Kg,Best3BenchKg,Deadlift1Kg,Deadlift2Kg,Deadlift3Kg,Best3DeadliftKg,TotalKg,Place
Anna Vishnyak,Анна Вишняк,Amateur Open,SBD,Multi-ply,F,Yes,1984-12-12,55.94,56,130,140,150,150,120,130,140,140,140,155,165,165,455,1
Polina Zhabina #1,Полина Жабина,Amateur Teen 14-15,SBD,Wraps,F,Yes,2003-06-03,56,56,87.5,95,105,105,57.5,62.5,-65,62.5,80,90,-95,90,257.5,1
Angelina Moskovkina,Ангелина Московкина,Amateur Teen 16-17,SBD,Wraps,F,Yes,2001-10-14,43,44,65,72.5,-75,72.5,42.5,47,-50,47,100,107.5,-110,107.5,226.5,1
Anastasiya Khoruzhina,Анастасия Хоружина,Amateur Teen 16-17,SBD,Wraps,F,Yes,2001-08-04,65.3,67.5,65,-70,70,70,42.5,47.5,-50,47.5,-70,75,82.5,82.5,200,1
Vera Galitskaya,Вера Галицкая,Amateur Teen 18-19,SBD,Wraps,F,Yes,2001-01-18,58.9,60,75,80,85,85,42.5,-45,45,45,80,85,-90,85,215,1
Ekaterina Rodicheva,Екатерина Родичева,Amateur Juniors 20-23,SBD,Wraps,F,Yes,1995-09-24,59,60,90,95,-100,95,50,55,-57.5,55,100,110,-120,110,260,1
Aleksandra Koshman,Александра Кошман,Amateur Juniors 20-23,SBD,Wraps,F,Yes,1999-03-08,67,67.5,-105,110,-117.5,110,60,-62.5,65,65,90,100,110,110,285,1
Rimma Grishko,Римма Гришко,Amateur Juniors 20-23,SBD,Wraps,F,Yes,1998-01-14,66.7,67.5,105,112.5,-117.5,112.5,55,60,-65,60,90,100,-110,100,272.5,2
Anna Cherepanova,Анна Черепанова,Amateur Open,SBD,Wraps,F,Yes,1990-03-28,51,52,70,-80,80,80,60,65,72.5,72.5,60,70,-77.5,70,222.5,1
Elena Kosikhina,Елена Косихина,Amateur Open,SBD,Wraps,F,Yes,1987-12-01,55,56,110,117.5,122.5,122.5,50,55,57.5,57.5,142.5,-147.5,-152.5,142.5,322.5,1
Marina Panarina,Марина Панарина,Amateur Open,SBD,Wraps,F,Yes,1984-06-26,58.85,60,112.5,120,127.5,127.5,65,70,-72.5,70,140,150,-155,150,347.5,1
Svetlana Grinina,Светлана Гринина,Amateur Open,SBD,Wraps,F,Yes,1980-07-30,58.9,60,100,110,-120,110,90,-100,100,100,-110,-120,120,120,330,2
Irina Batsileva,Ирина Бацилева,Amateur Open,SBD,Wraps,F,Yes,1993-04-16,65.25,67.5,90,95,102.5,102.5,62.5,-65,65,65,120,125,-127.5,125,292.5,2
Viktoriya Povnaya,Виктория Повная,Amateur Open,SBD,Wraps,F,Yes,1990-09-21,63.3,67.5,110,115,-120,115,52.5,57.5,-60,57.5,120,130,-137.5,130,302.5,1
Artyom Pershin,Артём Першин,Amateur Teen 16-17,SBD,Wraps,M,Yes,2001-04-27,70,75,140,150,-160,150,100,-105,-105,100,150,160,-165,160,410,1
Mikhail Zuev,Михаил Зуев,Amateur Teen 16-17,SBD,Wraps,M,Yes,2002-12-25,81.7,82.5,-145,145,-155,145,95,-100,100,100,170,180,-190,180,425,1
Andrey Gusiletov,Андрей Гусилетов,Amateur Teen 18-19,SBD,Wraps,M,Yes,1999-10-28,74.8,75,155,-165,-172.5,155,75,87.5,95,95,155,170,180,180,430,1
Kirill Zakharenko,Кирилл Захаренко,Amateur Teen 18-19,SBD,Wraps,M,Yes,2001-02-01,77.6,82.5,160,170,-180,170,80,90,100,100,200,220,-235,220,490,2
Denis Danilov,Денис Данилов,Amateur Teen 18-19,SBD,Wraps,M,Yes,1999-08-13,80.9,82.5,150,160,-165,160,105,-110,110,110,170,-180,185,185,455,3
Aleksandr Bessonov,Александр Бессонов,Amateur Juniors 20-23,SBD,Wraps,M,Yes,1998-09-05,67,67.5,145,152.5,157.5,157.5,110,-112.5,-112.5,110,170,177.5,182.5,182.5,450,1
Valeriy Vekman,Валерий Векман,Amateur Juniors 20-23,SBD,Wraps,M,Yes,1997-07-07,88,90,225,235,242.5,242.5,125,132.5,140,140,235,-242.5,,235,617.5,2
Dmitriy Korolkov,Дмитрий Корольков,Amateur Juniors 20-23,SBD,Wraps,M,Yes,1995-05-18,87.8,90,-205,215,-222.5,215,125,130,135,135,200,210,-215,210,560,3
Denis Ishevskikh,Денис Ишевских,Amateur Juniors 20-23,SBD,Wraps,M,Yes,1997-06-06,88.5,90,160,-175,175,175,110,-115,,110,170,180,-190,180,465,4
Sergey Potekhin,Сергей Потехин,Amateur Juniors 20-23,SBD,Wraps,M,Yes,1996-09-27,100,100,160,-170,-170,160,142.5,-147.5,-147.5,142.5,200,205,212.5,212.5,515,2
Ilya Osipov,Илья Осипов,Amateur Open,SBD,Wraps,M,Yes,1998-10-08,74.1,75,200,210,-215,210,127.5,132.5,137.5,137.5,210,220,230,230,577.5,1
Vadim Platonov,Вадим Платонов,Amateur Open,SBD,Wraps,M,Yes,1992-07-06,74.45,75,160,170,-180,170,110,120,-122.5,120,210,-220,-225,210,500,4
Sergey Polosin,Сергей Полосин,Amateur Open,SBD,Wraps,M,Yes,1983-09-27,82.05,82.5,200,210,-220,210,115,-120,-120,115,240,250,-260,250,575,2
Andrey Chikodanov,Андрей Чикоданов,Amateur Open,SBD,Wraps,M,Yes,1984-06-08,81.85,82.5,195,205,212.5,212.5,130,135,140,140,220,-230,-230,220,572.5,3
Aleksandr Sysoev,Александр Сысоев,Amateur Open,SBD,Wraps,M,Yes,1994-08-25,80,82.5,170,-180,-180,170,120,125,-130,125,200,-215,215,215,510,4
Oleg Naboka,Олег Набока,Amateur Open,SBD,Wraps,M,Yes,1995-02-23,88.9,90,170,-185,190,190,140,145,-150,145,230,245,-257.5,245,580,1
Evgeniy Ostrovskikh,Евгений Островских,Amateur Masters 45-49,SBD,Wraps,M,Yes,1973-06-07,66,67.5,130,140,142.5,142.5,90,92.5,-95,92.5,200,215,220,220,455,1
Yuriy Pasynkov,Юрий Пасынков,Amateur Masters 50-54,SBD,Wraps,M,Yes,1964-06-10,74.6,75,117.5,-125,125,125,85,90,-95,90,-155,160,170,170,385,1
Konstantin Rogov,Константин Рогов,Amateur Masters 40-44,SBD,Wraps,M,Yes,1975-11-16,82,82.5,190,200,-205,200,120,-125,130,130,210,-225,-225,210,540,1
Aleksandr Shiryaev,Александр Ширяев,Amateur Masters 40-44,SBD,Wraps,M,Yes,1975-12-02,81.3,82.5,140,-150,-150,140,110,115,120,120,170,-185,185,185,445,2
Vasiliy Mandzyuk,Василий Мандзюк,Amateur Masters 45-49,SBD,Wraps,M,Yes,1971-08-08,99,100,200,210,215,215,140,145,150,150,220,240,250,250,615,1
Petr Kunts,Петр Кунц,Amateur Masters 45-49,SBD,Wraps,M,Yes,1971-06-17,99,100,170,180,185,185,145,150,-155,150,180,190,,190,525,2
Evgeniy Yudin,Евгений Юдин,Amateur Masters 45-49,SBD,Wraps,M,Yes,1970-07-07,98.65,100,135,142.5,-150,142.5,120,-127.5,127.5,127.5,150,162.5,-170,162.5,432.5,3
Aleksandr Gordeychik,Александр Гордейчик,Amateur Open,SBD,Multi-ply,M,Yes,1983-12-23,89.3,90,130,145,160,160,120,130,-150,130,130,145,160,160,450,1
Aleksey Churkin,Алексей Чуркин,Amateur Open,SBD,Multi-ply,M,Yes,1987-07-06,95.7,100,240,-250,250,250,220,-240,240,240,220,230,,230,720,1
Yuliya Morgacheva,Юлия Моргачева,Pro Open,SBD,Wraps,F,No,1978-10-06,55.75,56,75,85,92.5,92.5,52.5,57.5,60,60,125,132.5,140,140,292.5,2
Irina Monoshkina,Ирина Моношкина,Pro Masters 40-44,SBD,Wraps,F,No,1975-05-21,57.2,60,80,85,90,90,42.5,47.5,-50,47.5,130,137.5,142.5,142.5,280,1
Aleksandr Gladkikh,Александр Гладких,Pro Teen 18-19,SBD,Wraps,M,No,1999-09-26,79.35,82.5,160,170,180,180,117.5,125,127.5,127.5,215,227.5,240,240,547.5,1
Denis Tarkrashev,Денис Таркрашев,Pro Juniors 20-23,SBD,Wraps,M,No,1996-02-28,79.25,82.5,175,180,187.5,187.5,140,147.5,152.5,152.5,232.5,245,255,255,595,1
Roman Ponomaryov,Роман Пономарёв,Pro Juniors 20-23,SBD,Wraps,M,No,1997-12-10,82.2,82.5,190,200,-210,200,145,155,-162.5,155,220,240,-250,240,595,2
Andrey Basargin,Андрей Басаргин,Pro Juniors 20-23,SBD,Wraps,M,No,1998-07-21,89.75,90,240,250,260,260,150,160,-170,160,260,270,-280,270,690,1
Denis Vostrikov,Денис Востриков,Pro Juniors 20-23,SBD,Wraps,M,No,1997-12-13,98.15,100,210,220,-225,220,135,145,-152.5,145,220,230,-240,230,595,1
Sergey Irkitov,Сергей Иркитов,Pro Open,SBD,Wraps,M,No,1995-05-24,74.5,75,170,180,190,190,117.5,122.5,127.5,127.5,175,185,-200,185,502.5,2
Aleksey Popov #20,Алексей Попов,Pro Open,SBD,Wraps,M,No,1993-08-24,70,75,150,160,165,165,110,115,120,120,200,210,215,215,500,3
Denis Osintsev,Денис Осинцев,Pro Open,SBD,Wraps,M,No,1996-08-11,82.4,82.5,260,270,,270,160,,,160,300,,,300,730,1
Dmitriy Khnykin,Дмитрий Хныкин,Pro Open,SBD,Wraps,M,No,1979-09-14,98.6,100,190,210,-220,210,147.5,-157.5,-157.5,147.5,190,205,-220,205,562.5,1
Andrey Bocharnikov,Андрей Бочарников,Pro Open,SBD,Wraps,M,No,1984-01-04,106.2,110,180,200,210,210,147.5,157.5,160,160,280,300,-315,300,670,1
Anton Ivakin,Антон Ивакин,Pro Open,SBD,Wraps,M,No,1988-12-11,122.1,125,200,-220,-220,200,160,170,175,175,210,225,232.5,232.5,607.5,1
Valeriy Borovev,Валерий Боровьев,Pro Masters 65-69,SBD,Wraps,M,No,1953-11-26,97.3,100,175,185,192.5,192.5,145,152.5,-155,152.5,180,190,-200,190,535,1
Roman Panov,Роман Панов,Pro Open,SBD,Multi-ply,M,No,1985-05-15,88.3,90,-240,240,-260,240,-250,-250,-250,,,,,,,DQ
Yana Posvistak,Яна Посвистак,Amateur Teen 18-19,S,Wraps,F,Yes,1999-11-24,50.5,52,95,100,-105,100,,,,,,,,,,DQ
Arina Akelkina,Арина Акелькина,Amateur Open,S,Wraps,F,Yes,1990-03-31,51,52,-95,95,-105,95,,,,,,,,,,DQ
Yana Bychkova,Яна Бычкова,Amateur Open,S,Wraps,F,Yes,1992-01-23,51.6,52,82.5,-87.5,-87.5,82.5,,,,,,,,,,DQ
Maksim Gerasimov,Максим Герасимов,Amateur Teen 14-15,S,Wraps,M,Yes,2004-04-01,60,60,100,110,115,115,,,,,,,,,,DQ
Matvey Polenkov,Матвей Поленков,Amateur Teen 14-15,S,Wraps,M,Yes,2004-04-04,65.05,67.5,130,145,-157.5,145,,,,,,,,,,DQ
Marina Garkalina,Марина Гаркалина,Amateur Teen 13,B,Raw,F,Yes,2006-03-10,44,44,,,,,30,35,-37.5,35,,,,,35,1
Kristina Leonovich,Кристина Леонович,Amateur Teen 14-15,B,Raw,F,Yes,2003-04-19,48,48,,,,,42.5,-47.5,-47.5,42.5,,,,,42.5,1
Angelina Moskovkina,Ангелина Московкина,Amateur Teen 16-17,B,Raw,F,Yes,2001-10-14,43,44,,,,,42.5,47.5,-50,47.5,,,,,,DQ
Tatyana Voronina,Татьяна Воронина,Amateur Teen 16-17,B,Raw,F,Yes,2002-06-30,52,52,,,,,55,60,-65,60,,,,,60,1
Varvara Kharchenko,Варвара Харченко,Amateur Teen 18-19,B,Raw,F,Yes,2000-11-02,58.75,60,,,,,50,55,60,60,,,,,60,1
Sofya Kiseleva,Софья Киселева,Amateur Juniors 20-23,B,Raw,F,Yes,1998-07-03,43,44,,,,,-52,52,-60,52,,,,,52,1
Ekaterina Sorokina,Екатерина Сорокина,Amateur Juniors 20-23,B,Raw,F,Yes,1996-03-04,59.75,60,,,,,65,70,-72.5,70,,,,,70,2
Angelina Shaydorova,Ангелина Шайдорова,Amateur Juniors 20-23,B,Raw,F,Yes,1998-10-04,59.7,60,,,,,-65,65,-70,65,,,,,65,3
Mariya Uskova,Мария Ускова,Amateur Juniors 20-23,B,Raw,F,Yes,1995-08-12,65,67.5,,,,,65,70,-75,70,,,,,70,1
Nadezhda Allacheva,Надежда Аллачева,Amateur Teen 18-19,B,Raw,F,Yes,1999-05-23,88.9,90,,,,,90,95,-100,95,,,,,95,1
Lera Gavrilova,Лера Гаврилова,Amateur Teen 14-15,B,Unlimited,F,Yes,2003-06-18,55,56,,,,,67.5,-77.5,-77.5,67.5,,,,,67.5,1
Yuliya Ruban,Юлия Рубан,Amateur Teen 16-17,B,Unlimited,F,Yes,2002-03-15,43,44,,,,,60,-67,-67.5,60,,,,,60,1
Arina Ostroborodova,Арина Остробородова,Amateur Teen 18-19,B,Unlimited,F,Yes,2000-03-14,53,56,,,,,-77.5,77.5,82.5,82.5,,,,,82.5,1
Samira Savinykh,Самира Савиных,Amateur Juniors 20-23,B,Unlimited,F,Yes,1995-12-03,52,52,,,,,-72.5,-75,-75,,,,,,,DQ
Tatyana Sakhan,Татьяна Сахань,Amateur Open,B,Raw,F,Yes,1988-08-09,50,52,,,,,52,55,-60,55,,,,,55,1
Alina Ostanina,Алина Останина,Amateur Open,B,Raw,F,Yes,1995-03-20,55,56,,,,,50,55,57,57,,,,,57,1
Polina Gaponenko,Полина Гапоненко,Amateur Open,B,Raw,F,Yes,1988-12-06,59.5,60,,,,,52.5,57.5,60,60,,,,,60,1
Marina Podluzhina,Марина Подлужина,Amateur Open,B,Raw,F,Yes,1988-03-28,65.6,67.5,,,,,67.5,70,72.5,72.5,,,,,72.5,1
Svetlana Anikina,Светлана Аникина,Amateur Open,B,Raw,F,Yes,1979-10-17,64.75,67.5,,,,,60,-65,-65,60,,,,,60,2
Ekaterina Dubrovina,Екатерина Дубровина,Amateur Open,B,Raw,F,Yes,1993-11-25,63.75,67.5,,,,,42.5,47.5,-50,47.5,,,,,47.5,3
Yuliya Ostanina,Юлия Останина,Amateur Masters 40-44,B,Raw,F,Yes,1975-06-17,56,56,,,,,52.5,55,-57.5,55,,,,,55,1
Tatyana Efremova,Татьяна Ефремова,Amateur Masters 40-44,B,Raw,F,Yes,1975-04-01,66.7,67.5,,,,,50,-55,55,55,,,,,55,1
Evgeniya Poleshchuk,Евгения Полещук,Amateur Masters 40-44,B,Raw,F,Yes,1974-11-24,67.1,67.5,,,,,62.5,70,72.5,72.5,,,,,72.5,1
Nadezhda Efremova,Надежда Ефремова,Amateur Masters 55-59,B,Raw,F,Yes,1959-06-01,59.45,60,,,,,55,-60,-60,55,,,,,55,1
Valentina Borodina,Валентина Бородина,Amateur Masters 60-64,B,Raw,F,Yes,1954-06-11,82,82.5,,,,,55,60,-62.5,60,,,,,60,1
Tatyana Gurtyakova,Татьяна Гуртякова,Amateur Masters 40-44,B,Single-ply,F,Yes,1977-06-23,55.9,56,,,,,-65,-65,-65,,,,,,,DQ
Valentina Menovshchikova,Валентина Меновщикова,Amateur Open,B,Unlimited,F,Yes,1990-12-30,47.8,48,,,,,60,65,67,67,,,,,67,1
Yana Sereda,Яна Середа,Amateur Open,B,Unlimited,F,Yes,1994-05-31,51,52,,,,,67.5,72.5,-82.5,72.5,,,,,72.5,1
Anastasiya Renkevich,Анастасия Ренкевич,Amateur Open,B,Unlimited,F,Yes,1985-02-16,60,60,,,,,-82.5,-82.5,-82.5,,,,,,,DQ
Laura Betenkova,Лаура Бетенькова,Amateur Open,B,Multi-ply,F,Yes,1983-10-09,66.2,67.5,,,,,-90,-90,-90,,,,,,,DQ
Artem Medvedev,Артем Медведєв,Amateur Teen 13,B,Raw,M,Yes,2006-04-19,53.6,56,,,,,60,62.5,67.5,67.5,,,,,67.5,1
Timofey Buzov,Тимофей Бузов,Amateur Teen 14-15,B,Raw,M,Yes,2004-09-25,47.4,52,,,,,32.5,35,-37.5,35,,,,,35,1
Aleksandr Yakovlev,Александр Яковлев,Amateur Teen 14-15,B,Raw,M,Yes,2003-10-08,58.75,60,,,,,-95,102.5,-105,102.5,,,,,102.5,1
Matvey Polenkov,Матвей Поленков,Amateur Teen 14-15,B,Raw,M,Yes,2004-04-04,65.05,67.5,,,,,90,100,-110,100,,,,,100,1
Yaroslav Karpenko,Ярослав Карпенко,Amateur Teen 14-15,B,Raw,M,Yes,2003-06-14,97.9,100,,,,,82.5,90,-97.5,90,,,,,90,1
Roman Savelev,Роман Савельев,Amateur Teen 16-17,B,Raw,M,Yes,2001-09-07,51.3,52,,,,,67.5,75,-82.5,75,,,,,75,1
Artemiy Aleksandrov,Артемий Александров,Amateur Teen 16-17,B,Raw,M,Yes,2002-09-04,55.5,56,,,,,100,-105,-105,100,,,,,100,1
Denis Petrov,Денис Пєтров,Amateur Masters 50-54,B,Raw,M,Yes,1966-05-24,66.5,67.5,,,,,95,-105,-110,95,,,,,95,1
Ilya Baykarov,Илья Байкаров,Amateur Teen 16-17,B,Raw,M,Yes,2001-04-20,75,75,,,,,112.5,117.5,120,120,,,,,120,1
Sergey Raylyanu,Сергей Райляну,Amateur Teen 16-17,B,Raw,M,Yes,2001-07-03,82.2,82.5,,,,,-122.5,122.5,-125,122.5,,,,,122.5,1
Yaroslav Khlebnikov,Ярослав Хлебников,Amateur Teen 18-19,B,Raw,M,Yes,2000-12-06,55.3,56,,,,,105,110,-112.5,110,,,,,110,1
Maksim Churkin,Максим Чуркин,Amateur Teen 18-19,B,Raw,M,Yes,1999-05-23,60,60,,,,,95,-100,-100,95,,,,,95,1
Aleksey Parfyonov,Алексей Парфёнов,Amateur Teen 18-19,B,Raw,M,Yes,2000-10-28,65.8,67.5,,,,,120,-125,-127.5,120,,,,,120,1
Anatoliy Safronov,Анатолий Сафронов,Amateur Teen 18-19,B,Raw,M,Yes,1999-06-08,82,82.5,,,,,120,125,-130,125,,,,,125,1
Ivan Ustinov,Иван Устинов,Amateur Teen 18-19,B,Raw,M,Yes,2000-05-12,87.2,90,,,,,55,62.5,70,70,,,,,70,1
Kirill Vyprantsev,Кирилл Выпранцев,Amateur Juniors 20-23,B,Raw,M,Yes,1996-08-09,67.4,67.5,,,,,-120,-120,-120,,,,,,,DQ
Aleksey Vegner,Алексей Вегнер,Amateur Juniors 20-23,B,Raw,M,Yes,1997-09-21,82.2,82.5,,,,,145,155,160,160,,,,,160,1
Ilya Ezhov,Илья Ежов,Amateur Juniors 20-23,B,Raw,M,Yes,1997-02-20,79.5,82.5,,,,,130,140,147.5,147.5,,,,,147.5,2
Yaroslav Shcherbin,Ярослав Щербин,Amateur Juniors 20-23,B,Raw,M,Yes,1996-09-11,76.5,82.5,,,,,125,130,135,135,,,,,135,3
Maksim Petrov,Максим Петров,Amateur Juniors 20-23,B,Raw,M,Yes,1996-10-09,80.7,82.5,,,,,-125,125,-130,125,,,,,125,4
Riyad Nurakhunov,Рияд Нурахунов,Amateur Juniors 20-23,B,Raw,M,Yes,1996-02-23,86.2,90,,,,,155,160,,160,,,,,160,1
Vyacheslav Korotaev,Вячеслав Коротаев,Amateur Juniors 20-23,B,Raw,M,Yes,1997-10-08,106.8,110,,,,,110,120,130,130,,,,,130,1
Artem Mushakov,Артем Мушаков,Amateur Teen 16-17,B,Unlimited,M,Yes,2003-01-11,54.9,56,,,,,135,-145,-160,135,,,,,135,1
Ilya Khizhnyak,Илья Хижняк,Amateur Teen 16-17,B,Unlimited,M,Yes,2001-06-19,59.5,60,,,,,-120,127.5,-135,127.5,,,,,127.5,1
Vladislav Karelov,Владислав Карелов,Amateur Teen 16-17,B,Unlimited,M,Yes,2001-10-11,65,67.5,,,,,155,-162.5,-167.5,155,,,,,155,1
Artem Gilev,Артем Гилев,Amateur Teen 16-17,B,Unlimited,M,Yes,2001-09-05,64.6,67.5,,,,,137.5,-145,-145,137.5,,,,,137.5,2
Maksim Troshin,Максим Трошин,Amateur Teen 18-19,B,Unlimited,M,Yes,1999-12-29,74.65,75,,,,,170,-185,-185,170,,,,,170,1
Artem Andreev,Артем Андреев,Amateur Teen 18-19,B,Unlimited,M,Yes,1999-07-15,73.4,75,,,,,150,155,-162.5,155,,,,,155,2
Mikhail Kozlov,Михаил Козлов,Amateur Juniors 20-23,B,Unlimited,M,Yes,1997-01-05,66.15,67.5,,,,,110,117.5,127.5,127.5,,,,,127.5,1
Valeriy Shchennikov,Валерий Щенников,Amateur Juniors 20-23,B,Unlimited,M,Yes,1996-06-19,74.05,75,,,,,-165,-165,-165,,,,,,,DQ
Anatoliy Kuznetsov,Анатолий Кузнецов,Amateur Juniors 20-23,B,Unlimited,M,Yes,1995-12-16,80.6,82.5,,,,,180,-195,202.5,202.5,,,,,202.5,1
Viktor Kuzyakin,Виктор Кузякин,Amateur Juniors 20-23,B,Unlimited,M,Yes,1997-10-06,80.6,82.5,,,,,185,202.5,-237.5,202.5,,,,,202.5,2
Vitaliy Karpov,Виталий Карпов,Amateur Juniors 20-23,B,Unlimited,M,Yes,1996-04-14,81.45,82.5,,,,,180,-200,-205,180,,,,,180,3
Andrey Vykhodtsev,Андрей Выходцев,Amateur Juniors 20-23,B,Unlimited,M,Yes,1996-06-06,79.25,82.5,,,,,120,-130,-130,120,,,,,120,4
Ilya Vlasov,Илья Власов,Amateur Juniors 20-23,B,Unlimited,M,Yes,1996-03-04,86,90,,,,,187.5,210,217.5,217.5,,,,,217.5,1
Radmir Nurakhunov,Радмир Нурахунов,Amateur Juniors 20-23,B,Unlimited,M,Yes,1998-08-24,87.9,90,,,,,145,155,-165,155,,,,,155,2
Leonid Alekseev,Леонид Алексеев,Amateur Juniors 20-23,B,Unlimited,M,Yes,1996-04-05,87.95,90,,,,,-165,-187.5,-187.5,,,,,,,DQ
Bogdan Matveev,Богдан Матвеев,Amateur Teen 16-17,B,Single-ply,M,Yes,2001-12-04,77.9,82.5,,,,,192.5,-202.5,-202.5,192.5,,,,,192.5,1
Nikita Zhirov,Никита Жиров,Amateur Juniors 20-23,B,Single-ply,M,Yes,1997-07-01,99.5,100,,,,,-257.5,257.5,-277.5,257.5,,,,,257.5,1
Oleg Grigorev,Олег Григорьев,Amateur Juniors 20-23,B,Single-ply,M,Yes,1998-02-26,98.9,100,,,,,-250,250,-262.5,250,,,,,250,2
Sergey Parenchuk,Сергей Паренчук,Amateur Open,B,Raw,M,Yes,1993-01-07,65.7,67.5,,,,,127.5,,,127.5,,,,,127.5,1
Aleksandr Zagarskikh,Александр Загарских,Amateur Open,B,Raw,M,Yes,1989-02-03,66.7,67.5,,,,,95,110,-115,110,,,,,110,2
Aleksey Manankov,Алексей Мананков,Amateur Open,B,Raw,M,Yes,1982-02-04,73.9,75,,,,,147.5,152.5,155,155,,,,,155,2
Aleksandr Ostertak,Александр Остертак,Amateur Open,B,Raw,M,Yes,1985-12-17,74.1,75,,,,,147.5,-152.5,152.5,152.5,,,,,152.5,3
Aleksandr Gartvig,Александр Гартвиг,Amateur Open,B,Raw,M,Yes,1992-12-04,74.3,75,,,,,140,150,-155,150,,,,,150,4
Aleksey Vegner,Алексей Вегнер,Amateur Open,B,Raw,M,Yes,1997-09-21,82.2,82.5,,,,,145,155,160,160,,,,,160,1
Petr Cherdantsev,Петр Черданцев,Amateur Open,B,Raw,M,Yes,1994-10-07,80.9,82.5,,,,,135,140,-147.5,140,,,,,140,2
Sergey Meleshenko,Сергей Мелешенко,Amateur Open,B,Raw,M,Yes,1989-08-18,81.55,82.5,,,,,122.5,130,-132.5,130,,,,,130,3
Rustam Rustamov,Рустам Рустамов,Amateur Open,B,Raw,M,Yes,1979-07-14,82.3,82.5,,,,,130,-140,-140,130,,,,,130,4
Evgeniy Otmashkin,Евгений Отмашкин,Amateur Open,B,Raw,M,Yes,1999-02-04,80.7,82.5,,,,,115,-130,-130,115,,,,,115,5
Roman Mazhorin,Роман Мажорин,Amateur Open,B,Raw,M,Yes,1995-01-15,80.8,82.5,,,,,-120,-120,-130,,,,,,,DQ
Denis Maneev,Денис Манеев,Amateur Open,B,Raw,M,Yes,1984-06-30,79.9,82.5,,,,,-110,-110,-110,,,,,,,DQ
Aleksandr Morozov,Александр Морозов,Amateur Open,B,Raw,M,Yes,1990-07-03,88.3,90,,,,,145,150,155,155,,,,,155,2
Evgeniy Fokin,Евгений Фокин,Amateur Open,B,Raw,M,Yes,1992-02-18,89.75,90,,,,,145,-150,150,150,,,,,150,3
Aleksandr Khanovich,Александр Ханович,Amateur Open,B,Raw,M,Yes,1983-05-28,89.02,90,,,,,142.5,147.5,-155,147.5,,,,,147.5,4
Ilya Shapovalov,Илья Шаповалов,Amateur Open,B,Raw,M,Yes,1984-06-23,96.4,100,,,,,145,155,-162.5,155,,,,,155,2
Aleksandr Lyubivyy,Александр Любивый,Amateur Open,B,Raw,M,Yes,1991-05-22,96.2,100,,,,,135,142.5,-147.5,142.5,,,,,142.5,3
Ilya Adamenko,Илья Адаменко,Amateur Open,B,Raw,M,Yes,1994-07-11,97.6,100,,,,,140,-145,-145,140,,,,,140,4
Igor Khmara,Игорь Хмара,Amateur Open,B,Raw,M,Yes,1982-07-25,98.6,100,,,,,-142.5,-142.5,-142.5,,,,,,,DQ
Roman Prosekin,Роман Просекин,Amateur Open,B,Raw,M,Yes,1986-05-12,108.1,110,,,,,155,162.5,-167.5,162.5,,,,,162.5,2
Pavel Gavryushin,Павел Гаврюшин,Amateur Open,B,Raw,M,Yes,1985-04-21,108,110,,,,,140,-147.5,-147.5,140,,,,,140,4
Viktor Dolbilov,Виктор Долбилов,Amateur Open,B,Raw,M,Yes,1993-10-02,113.7,125,,,,,150,155,162.5,162.5,,,,,162.5,2
Vladimir Mamaev,Владимир Мамаев,Amateur Open,B,Raw,M,Yes,1991-11-19,111.2,125,,,,,150,155,160,160,,,,,160,3
Sergey Khoruzhin,Сергей Хоружин,Amateur Open,B,Single-ply,M,Yes,1990-04-13,88.9,90,,,,,-237.5,-237.5,-237.5,,,,,,,DQ
Ivan Shokov,Иван Шоков,Amateur Open,B,Unlimited,M,Yes,1994-12-06,65.6,67.5,,,,,145,167.5,-175,167.5,,,,,167.5,1
Aleksey Kuznetsov,Алексей Кузнецов,Amateur Open,B,Unlimited,M,Yes,1994-03-21,66.95,67.5,,,,,130,-145,-145,130,,,,,130,2
Botirali Khalilov,Ботирали Халилов,Amateur Open,B,Unlimited,M,Yes,1992-02-04,74.1,75,,,,,-150,162.5,167.5,167.5,,,,,167.5,2
Dmitriy Lagunets,Дмитрий Лагунец,Amateur Open,B,Unlimited,M,Yes,1991-11-29,73.45,75,,,,,-155,162.5,165,165,,,,,165,3
Sergey Panchenko,Сергей Панченко,Amateur Open,B,Unlimited,M,Yes,1995-01-14,73.3,75,,,,,162.5,-185,-185,162.5,,,,,162.5,4
Andrey Avramenko,Андрей Авраменко,Amateur Open,B,Unlimited,M,Yes,1990-03-26,80.1,82.5,,,,,152.5,175,-180,175,,,,,175,1
Oleg Novikov,Олег Новиков,Amateur Open,B,Unlimited,M,Yes,1989-04-19,79.9,82.5,,,,,145,155,160,160,,,,,160,2
Stanislav Konov,Станислав Конов,Amateur Open,B,Unlimited,M,Yes,1988-06-01,81,82.5,,,,,160,-175,-175,160,,,,,160,3
Vitaliy Bogatyrev,Виталий Богатырев,Amateur Open,B,Unlimited,M,Yes,1979-06-28,88.45,90,,,,,187.5,-195,-195,187.5,,,,,187.5,4
Vyacheslav Pekar,Вячеслав Пекарь,Amateur Open,B,Unlimited,M,Yes,1993-02-16,89.3,90,,,,,170,187.5,-192.5,187.5,,,,,187.5,5
Stanislav Chernyshov,Станислав Чернышов,Amateur Open,B,Unlimited,M,Yes,1982-06-13,88.5,90,,,,,165,-175,-187.5,165,,,,,165,6
Nikita Uvarov,Никита Уваров,Amateur Open,B,Unlimited,M,Yes,1992-12-28,86.7,90,,,,,150,155,-165,155,,,,,155,7
Aleksandr Istoshin,Александр Истошин,Amateur Open,B,Unlimited,M,Yes,1985-05-25,88.1,90,,,,,-170,-170,-170,,,,,,,DQ
Vasiliy Schastlivyy,Василий Счастливый,Amateur Open,B,Unlimited,M,Yes,1989-04-20,90,90,,,,,-255,-255,-260,,,,,,,DQ
Vadim Ivlev,Вадим Ивлев,Amateur Open,B,Unlimited,M,Yes,1987-12-15,89.6,90,,,,,-200,-200,-217.5,,,,,,,DQ
Aleksey Churkin,Алексей Чуркин,Amateur Open,B,Unlimited,M,Yes,1990-01-01,95.7,100,,,,,220,-240,240,240,,,,,240,1
Andrey Poleshchuk,Андрей Полещук,Amateur Open,B,Unlimited,M,Yes,1980-08-27,98.7,100,,,,,-232.5,232.5,-250,232.5,,,,,232.5,2
Ivan Safonov,Иван Сафонов,Amateur Open,B,Unlimited,M,Yes,1993-04-08,97.45,100,,,,,165,170,-177.5,170,,,,,170,3
Anatoliy Slyadnev,Анатолий Сляднев,Amateur Open,B,Unlimited,M,Yes,1988-05-10,108.4,110,,,,,-200,-200,-215,,,,,,,DQ
Aleksey Ovchinnikov,Алексей Овчинников,Amateur Open,B,Unlimited,M,Yes,1985-07-11,165.95,140+,,,,,260,-282.5,-282.5,260,,,,,260,1
Vasiliy Dudnik,Василий Дудник,Amateur Open,B,Unlimited,M,Yes,1990-10-04,74.75,75,,,,,-215,-215,-215,,,,,,,DQ
Ilya Kazyura,Илья Казюра,Amateur Open,B,Unlimited,M,Yes,1985-08-30,79.95,82.5,,,,,240,252.5,265,265,,,,,265,1
Maksim Babun,Максим Бабун,Amateur Open,B,Unlimited,M,Yes,1986-06-05,82.35,82.5,,,,,-250,-250,-250,,,,,,,DQ
Boris Tikhonov,Борис Тихонов,Amateur Open,B,Unlimited,M,Yes,1993-10-19,79.3,82.5,,,,,-242.5,-252.5,-252.5,,,,,,,DQ
Vladimir Doroshev,Владимир Дорошев,Amateur Open,B,Unlimited,M,Yes,1980-10-05,89,90,,,,,-275,275,-292.5,275,,,,,275,1
Andrey Riter,Андрей Ритер,Amateur Open,B,Unlimited,M,Yes,1983-06-29,88.5,90,,,,,-250,-250,-255,,,,,,,DQ
Dmitriy Savchenko,Дмитрий Савченко,Amateur Open,B,Unlimited,M,Yes,1981-08-03,95,100,,,,,230,255,-270,255,,,,,255,2
Artyom Kazanov,Артём Казанов,Amateur Masters 40-44,B,Raw,M,Yes,1976-01-28,81.1,82.5,,,,,145,-150,,145,,,,,145,1
Marat Utegenov,Марат Утегенов,Amateur Masters 40-44,B,Raw,M,Yes,1977-04-30,88.4,90,,,,,140,-147.5,-147.5,140,,,,,140,1
Artem Antonov,Артем Антонов,Amateur Masters 40-44,B,Raw,M,Yes,1979-01-09,106.9,110,,,,,185,187.5,-190,187.5,,,,,187.5,1
Mikhail Myadelets,Михаил Мяделец,Amateur Masters 40-44,B,Raw,M,Yes,1975-03-02,107.2,110,,,,,-142.5,-142.5,-142.5,,,,,,,DQ
Dmitriy Kamenek,Дмитрий Каменек,Amateur Masters 45-49,B,Raw,M,Yes,1973-02-11,107.1,110,,,,,140,150,-160,150,,,,,150,1
Petr Kunts,Петр Кунц,Amateur Masters 45-49,B,Raw,M,Yes,1971-06-17,100,100,,,,,145,150,-155,150,,,,,150,1
Vitaliy Roshchupkin,Виталий Рощупкин,Amateur Masters 60-64,B,Raw,M,Yes,1958-01-06,82.3,82.5,,,,,125,130,135,135,,,,,135,1
Ilya Bastrakov,Илья Бастраков,Amateur Masters 60-64,B,Raw,M,Yes,1958-10-08,98.5,100,,,,,125,127.5,-130,127.5,,,,,127.5,1
Andrey Antyasov,Андрей Антясов,Amateur Masters 45-49,B,Single-ply,M,Yes,1970-11-21,105.5,110,,,,,190,200,-210,200,,,,,200,1
Valeriy Mul,Валерий Муль,Amateur Masters 40-44,B,Multi-ply,M,Yes,1975-05-20,82.5,82.5,,,,,167.5,180,185,185,,,,,,DQ
Aleksey Fateev,Алексей Фатеев,Amateur Masters 40-44,B,Multi-ply,M,Yes,1978-01-02,95.7,100,,,,,195,205,225,225,,,,,225,1
Aleksandr Trishchev,Александр Трищев,Amateur Masters 40-44,B,Multi-ply,M,Yes,1976-08-14,120,125,,,,,200,215,-217.5,215,,,,,215,1
Evgeniy Golubev,Евгений Голубев,Amateur Masters 45-49,B,Multi-ply,M,Yes,1973-10-02,89.85,90,,,,,172.5,180,-185,180,,,,,180,1
Vasiliy Selivanov,Василий Селиванов,Amateur Masters 60-64,B,Multi-ply,M,Yes,1958-03-08,73.8,75,,,,,-130,-130,-130,,,,,,,DQ
Viktoriya Pribytkova,Виктория Прибыткова,Pro Teen 16-17,B,Unlimited,F,No,2001-08-10,56,56,,,,,127.5,-140,,127.5,,,,,127.5,1
Agnessa Merkulova,Агнесса Меркулова,Pro Open,B,Unlimited,F,No,1988-03-09,59.6,60,,,,,160,-180,-200,160,,,,,160,1
Egor Lobyntsev,Егор Лобынцев,Pro Teen 18-19,B,Raw,M,No,1999-05-11,78.6,82.5,,,,,127.5,132.5,-140,132.5,,,,,132.5,1
Sergey Bykov,Сергей Быков,Pro Juniors 20-23,B,Raw,M,No,1998-05-18,59,60,,,,,80,85,-90,85,,,,,85,1
Nikolay Shestakov,Николай Шестаков,Pro Open,B,Raw,M,No,1990-01-12,93.98,100,,,,,165,175,180,180,,,,,180,1
Andrey Andreychenko,Андрей Андрейченко,Pro Juniors 20-23,B,Raw,M,No,1995-11-17,105.7,110,,,,,150,160,-165,160,,,,,160,1
Sergey Rudakov,Сергей Рудаков,Pro Open,B,Raw,M,No,1979-05-18,73,75,,,,,155,-162.5,162.5,162.5,,,,,162.5,1
Aleksandr Klubovich,Александр Клубович,Pro Open,B,Raw,M,No,1994-11-25,73.5,75,,,,,142.5,-155,-155,142.5,,,,,142.5,5
Roman Markin,Роман Маркин,Pro Open,B,Raw,M,No,1991-07-03,88.4,90,,,,,160,-172.5,182.5,182.5,,,,,182.5,1
Anatoliy Goloshchapov,Анатолий Голощапов,Pro Open,B,Raw,M,No,1983-12-27,96.25,100,,,,,-180,180,-192.5,180,,,,,180,1
Vladimir Samoylov,Владимир Самойлов,Pro Open,B,Raw,M,No,1991-05-09,106.7,110,,,,,-200,200,210,210,,,,,210,1
Nail Mineev,Наиль Минеев,Pro Open,B,Raw,M,No,1995-04-13,101.2,110,,,,,140,147.5,-150,147.5,,,,,147.5,3
Maksim Medvedev,Максим Медведев,Pro Open,B,Raw,M,No,1981-05-16,117.3,125,,,,,220,235,245,245,,,,,245,1
Vladimir Mikheev,Владимир Михеев,Pro Open,B,Unlimited,M,No,1991-04-10,74.9,75,,,,,217.5,-222.5,-225,217.5,,,,,217.5,1
Aleksandr Rusin,Александр Русин,Pro Open,B,Unlimited,M,No,1990-07-05,88.6,90,,,,,-222.5,-222.5,222.5,222.5,,,,,222.5,1
Grigoriy Kachesov,Григорий Качесов,Pro Open,B,Unlimited,M,No,1988-12-23,87.4,90,,,,,-210,-215,215,215,,,,,215,2
Maksim Savchenko,Максим Савченко,Pro Open,B,Unlimited,M,No,1982-04-06,88.5,90,,,,,205,-225,,205,,,,,205,3
Ivan Anikin,Иван Аникин,Pro Open,B,Unlimited,M,No,1987-10-27,97,100,,,,,240,257.5,272.5,272.5,,,,,272.5,1
Vladimir Chebotnikov,Владимир Чеботников,Pro Open,B,Unlimited,M,No,1988-04-14,97.8,100,,,,,-285,-307.5,-307.5,,,,,,,DQ
Dmitriy Savchenko,Дмитрий Савченко,Pro Open,B,Unlimited,M,No,1981-08-03,95,100,,,,,230,255,-270,255,,,,,255,3
Konstantin Shesler,Константин Шеслер,Pro Open,B,Unlimited,M,No,1986-09-04,105.5,110,,,,,290,-310,-310,290,,,,,290,1
Elena Belyakova,Елена Белякова,Amateur Juniors 20-23,D,Raw,F,Yes,1996-06-19,48,48,,,,,,,,,105,110,120,120,120,1
Valeriya Gavrilova,Валерия Гаврилова,Amateur Teen 14-15,D,Raw,F,Yes,2003-06-18,55,56,,,,,,,,,85,90,-95,90,90,1
Alyona Agarkova,Алёна Агаркова,Amateur Juniors 20-23,D,Raw,F,Yes,1998-04-30,60,60,,,,,,,,,112.5,120,-130,120,120,1
Alla Vnukovskaya,Алла Внуковская,Amateur Masters 45-49,D,Raw,F,Yes,1972-05-18,60,60,,,,,,,,,95,102.5,117.5,117.5,117.5,1
Nadezhda Efremova,Надежда Ефремова,Amateur Masters 55-59,D,Raw,F,Yes,1959-06-01,59.45,60,,,,,,,,,100,105,110,110,110,1
Viktoriya Povnaya,Виктория Повная,Amateur Open,D,Raw,F,Yes,1990-08-21,63.3,67.5,,,,,,,,,120,130,-137.5,130,130,1
Daniil Postupaylenko,Даниил Поступайленко,Amateur Teen 16-17,D,Raw,M,Yes,2001-09-30,66.1,67.5,,,,,,,,,150,167.5,-170,167.5,167.5,1
Maksim Romanov,Максим Романов,Amateur Teen 16-17,D,Raw,M,Yes,2001-08-05,90.75,100,,,,,,,,,190,200,-215,200,200,1
Artem Komolov,Артем Комолов,Amateur Teen 16-17,D,Raw,M,Yes,2001-12-01,108.4,110,,,,,,,,,210,-215,-217.5,210,210,1
Nikita Shipulin,Никита Шипулин,Amateur Teen 18-19,D,Raw,M,Yes,1999-08-25,56.5,60,,,,,,,,,175,-190,-190,175,175,1
Aleksandr Konovalov,Александр Коновалов,Amateur Teen 18-19,D,Raw,M,Yes,1999-09-24,57.6,60,,,,,,,,,130,152.5,-162.5,152.5,152.5,2
Dmitriy Semenov,Дмитрий Семенов,Amateur Teen 18-19,D,Raw,M,Yes,2000-01-29,65.6,67.5,,,,,,,,,210,220,-237.5,220,220,1
Andrey Gusiletov,Андрей Гусилетов,Amateur Teen 18-19,D,Raw,M,Yes,1999-10-28,74.8,75,,,,,,,,,-155,-190,-205,,,DQ
Nikita Syso,Никита Сысо,Amateur Teen 18-19,D,Raw,M,Yes,1999-05-02,81.4,82.5,,,,,,,,,-170,-180,190,190,190,1
Dmitriy Tsyganenko,Дмитрий Цыганенко,Amateur Juniors 20-23,D,Raw,M,Yes,1997-09-29,74.7,75,,,,,,,,,195,205,220,220,220,1
Ivan Chursin,Иван Чурсин,Amateur Juniors 20-23,D,Raw,M,Yes,1995-10-12,75,75,,,,,,,,,195,205,217.5,217.5,217.5,2
Andrey Kurganakov,Андрей Курганаков,Amateur Juniors 20-23,D,Raw,M,Yes,1999-01-11,82,82.5,,,,,,,,,205,217.5,-232.5,217.5,217.5,1
Andrey Propastin,Андрей Пропастин,Amateur Juniors 20-23,D,Raw,M,Yes,1997-08-12,82.5,82.5,,,,,,,,,165,-190,190,190,190,2
Eduard Kauts,Эдуард Кауц,Amateur Juniors 20-23,D,Raw,M,Yes,1996-12-30,82,82.5,,,,,,,,,170,180,187.5,187.5,187.5,3
Danil Lukyanov,Данил Лукьянов,Amateur Juniors 20-23,D,Raw,M,Yes,1997-10-09,78.5,82.5,,,,,,,,,-165,-190,-190,,,DQ
Aleksandr Chikin,Александр Чикин,Amateur Open,D,Raw,M,Yes,1991-08-29,55.9,56,,,,,,,,,145,155,-165,155,155,1
Evgeniy Ostrovskikh,Евгений Островских,Amateur Open,D,Raw,M,Yes,1973-06-17,66,67.5,,,,,,,,,200,-220,220,220,220,1
Mikhail Pisarev,Михаил Писарев,Amateur Open,D,Raw,M,Yes,1999-03-04,66.65,67.5,,,,,,,,,185,-192.5,192.5,192.5,192.5,2
Aleksey Korostelev,Алексей Коростелев,Amateur Open,D,Raw,M,Yes,1987-09-05,66.8,67.5,,,,,,,,,185,-192.5,-192.5,185,185,3
Sergey Belyy,Сергей Белый,Amateur Open,D,Raw,M,Yes,1995-03-08,74,75,,,,,,,,,205,217.5,-235,217.5,217.5,1
Evgeniy Dopiro,Евгений Допиро,Amateur Open,D,Raw,M,Yes,1991-12-19,74.6,75,,,,,,,,,170,180,185,185,185,2
Sergey Polosin,Сергей Полосин,Amateur Open,D,Raw,M,Yes,1983-09-27,82.05,82.5,,,,,,,,,240,250,-260,250,250,1
Sergey Ignatenko,Сергей Игнатенко,Amateur Open,D,Raw,M,Yes,1990-05-19,78.45,82.5,,,,,,,,,220,227.5,230,230,230,2
Andrey Avramenko,Андрей Авраменко,Amateur Open,D,Raw,M,Yes,1990-03-26,80.1,82.5,,,,,,,,,187.5,190,200,200,200,3
Dmitriy Bodorin,Дмитрий Бодорин,Amateur Open,D,Raw,M,Yes,1989-05-24,90,90,,,,,,,,,225,232.5,245,245,245,1
Ivan Yakunin,Иван Якунин,Amateur Open,D,Raw,M,Yes,1989-08-10,88.7,90,,,,,,,,,215,225,230,230,230,2
Ivan Khudyakov,Иван Худяков,Amateur Open,D,Raw,M,Yes,1994-04-22,86.35,90,,,,,,,,,177.5,187.5,-197.5,187.5,187.5,3
Yuriy Sivov,Юрий Сивов,Amateur Open,D,Raw,M,Yes,1989-12-18,96.1,100,,,,,,,,,235,240,250,250,250,1
Konstantin Rogov,Константин Рогов,Amateur Masters 40-44,D,Raw,M,Yes,1975-11-16,82,82.5,,,,,,,,,210,-225,-225,210,210,1
Vyacheslav Safonov,Вячеслав Сафонов,Amateur Masters 40-44,D,Raw,M,Yes,1975-11-07,98.9,100,,,,,,,,,205,215,225,225,225,1
Vasiliy Mandzyuk,Василий Мандзюк,Amateur Masters 45-49,D,Raw,M,Yes,1971-08-08,99,100,,,,,,,,,220,240,250,250,250,1
Artur Kobets,Артур Кобец,Amateur Masters 50-54,D,Raw,M,Yes,1967-06-10,108.55,110,,,,,,,,,200,220,235,235,235,1
Sergey Laryagin,Сергей Ларягин,Amateur Masters 55-59,D,Raw,M,Yes,1962-03-14,108.9,110,,,,,,,,,205,215,,215,215,1
Andrey Bocharnikov,Андрей Бочарников,Pro Open,D,Raw,M,No,1984-04-01,106.2,110,,,,,,,,,280,300,315,315,315,1
Evgeniy Drygin,Евгений Дрыгин,Elite Open,B,Unlimited,M,No,1989-04-06,75,75,,,,,-260,-260,-260,,,,,,,DQ
Nikita Starostin,Никита Старостин,Elite Teen 16-17,B,Unlimited,M,No,2001-08-17,82.1,82.5,,,,,260,-280,-280,260,,,,,260,1
Evgeniy Verkhotin,Евгений Верхотин,Elite Juniors 20-23,B,Unlimited,M,No,1995-06-25,79.5,82.5,,,,,280,305,-320,305,,,,,305,1
Mekhrodzh Madolimov,Мехродж Мадолимов,Elite Open,B,Unlimited,M,No,1991-09-04,79.7,82.5,,,,,290,-305,305,305,,,,,305,1
Denis Lubyagin,Денис Лубягин,Elite Open,B,Unlimited,M,No,1994-03-29,80.95,82.5,,,,,-280,-280,-300,,,,,,,DQ
Aleksandr Maltsev,Александр Мальцев,Elite Open,B,Unlimited,M,No,1983-09-27,88.9,90,,,,,282.5,292.5,302.5,302.5,,,,,302.5,1
Anatoliy Chumakov,Анатолий Чумаков,Elite Open,B,Unlimited,M,No,1988-03-30,99.2,100,,,,,290,305,315,315,,,,,315,1
Vladimir Samoylov,Владимир Самойлов,Elite Open,B,Unlimited,M,No,1991-05-09,106.7,110,,,,,320,-330,-350,320,,,,,320,1
Maksim Medvedev,Максим Медведев,Elite Open,B,Unlimited,M,No,1981-05-16,117.3,125,,,,,370,390,410,410,,,,,410,1
Vladimir Kovtonyuk,Владимир Ковтонюк,Elite Masters 45-49,B,Unlimited,M,No,1970-09-17,111,125,,,,,-280,-280,280,280,,,,,280,1
Ivan Shamrin,Иван Шамрин,Elite Juniors 20-23,D,Multi-ply,M,No,1995-05-27,82.45,82.5,,,,,,,,,270,280,-305,280,280,1
Denis Osintsev,Денис Осинцев,Elite Juniors 20-23,D,Multi-ply,M,No,1996-09-11,82.6,90,,,,,,,,,300,310,315,315,315,1
Dmitriy Kolomov,Дмитрий Коломов,Elite Juniors 20-23,D,Multi-ply,M,No,1996-07-02,94.8,100,,,,,,,,,270,-282.5,-282.5,270,270,1
Yuriy Karpov,Юрий Карпов,Elite Open,D,Multi-ply,M,No,1986-12-13,99.55,100,,,,,,,,,320,340,-355,340,340,1
