Division,WeightClassKg,Place,Name,Team,BodyweightKg,Best3SquatKg,Best3BenchKg,Best3DeadliftKg,TotalKg,Equipment,Event,Sex,BirthDate
Boys,51.71,1,Christopher Martinez,Mission,47.17,149.69,86.18,142.88,378.75,Unlimited,SBD,M,
Boys,51.71,2,Adrian Valadez,Edinburg North,51.44,142.88,92.99,142.88,378.75,Unlimited,SBD,M,
Boys,51.71,3,Dereck Liga,Edinburg Economedes,47.63,127.01,83.91,154.22,365.14,Unlimited,SBD,M,
Boys,55.79,1,Jeremiah Alaniz,McAllen Rowe,54.43,97.52,54.43,106.59,258.55,Unlimited,SBD,M,
Boys,55.79,NS,Deondre Moody,Donna North,,,,,,Unlimited,SBD,M,
Boys,59.87,1,Jeremy Salazar,Donna North,59.87,244.94,142.88,206.38,594.21,Unlimited,SBD,M,
Boys,59.87,2,Gilbert Ramirez,Los Fresnos,57.88,167.83,127.01,179.17,474,Unlimited,SBD,M,
Boys,59.87,3,Omar Vasquez,Brownsville Lopez,58.97,163.29,102.06,151.95,417.3,Unlimited,SBD,M,
Boys,59.87,4,Sebastian Loredo,Edinburg Economedes,59.87,151.95,106.59,154.22,412.77,Unlimited,SBD,M,
Boys,59.87,5,Luis Vasquez,Brownsville Lopez,59.42,158.76,90.72,156.49,405.97,Unlimited,SBD,M,
Boys,59.87,6,Luis Lopez,Edinburg North,58.06,149.69,90.72,145.15,385.55,Unlimited,SBD,M,
Boys,59.87,7,Dylan Saldana,McAllen Rowe,56.7,120.2,79.38,145.15,344.73,Unlimited,SBD,M,
Boys,59.87,8,Rafael Quintero,Mission,58.06,83.91,68.04,147.42,299.37,Unlimited,SBD,M,
Boys,59.87,9,Christopher Laboy,Mission,58.51,83.91,52.16,104.33,240.4,Unlimited,SBD,M,
Boys,59.87,NS,Michael Rodriguez,Los Fresnos,,,,,,Unlimited,SBD,M,
Boys,67.13,1,Julius Molina,Edinburg North,66.95,242.67,133.81,217.72,594.21,Unlimited,SBD,M,
Boys,67.13,2,Santiago Rogel,Donna North,64.41,217.72,113.4,229.06,560.19,Unlimited,SBD,M,
Boys,67.13,3,Orlando Torres,Edinburg North,66.32,235.87,133.81,183.7,553.38,Unlimited,SBD,M,
Boys,67.13,4,Kevin Lopez,Donna North,66.68,215.46,104.33,201.85,521.63,Unlimited,SBD,M,
Boys,67.13,5,Andrik Lopez,Brownsville Porter,67.13,195.04,124.74,183.7,503.49,Unlimited,SBD,M,
Boys,67.13,6,Daniel Marquez,Mission,63.96,192.78,102.06,199.58,494.42,Unlimited,SBD,M,
Boys,67.13,7,Maddox Gonzalez,Edinburg Economedes,66.68,170.1,124.74,183.7,478.54,Unlimited,SBD,M,
Boys,67.13,8,Ricardo Chavez,Edinburg Economedes,60.69,142.88,88.45,149.69,381.02,Unlimited,SBD,M,
Boys,67.13,9,Marcus Garcia,McAllen Rowe,66.22,113.4,70.31,133.81,317.51,Unlimited,SBD,M,
Boys,67.13,DQ,Cecilio Pacheco,Edinburg Economedes,66.22,145.15,,,,Unlimited,SBD,M,
Boys,74.84,1,Juan Sanchez,Edinburg North,73.26,278.96,138.35,269.89,687.19,Unlimited,SBD,M,
Boys,74.84,2,Moises Sanchez,Mission,73.94,219.99,117.93,226.8,564.72,Unlimited,SBD,M,
Boys,74.84,3,Jonathan Puentes,Brownsville Porter,73.94,226.8,124.74,183.7,535.24,Unlimited,SBD,M,
Boys,74.84,4,Eddie Slovak,Brownsville Lopez,74.84,190.51,115.67,226.8,532.97,Unlimited,SBD,M,
Boys,74.84,5,Adair Gomez,Brownsville Porter,74.84,201.85,115.67,206.38,523.9,Unlimited,SBD,M,
Boys,74.84,6,Diego Requena,Harlingen South,70.76,183.7,120.2,192.78,496.68,Unlimited,SBD,M,
Boys,74.84,7,Edwin Gaytan,Edinburg Economedes,74.84,183.7,106.59,199.58,489.88,Unlimited,SBD,M,
Boys,74.84,8,Roman Zamora,Harlingen South,73.94,172.37,129.27,185.97,487.61,Unlimited,SBD,M,
Boys,74.84,9,Marcus Colunga,Donna North,70.31,183.7,90.72,208.65,483.08,Unlimited,SBD,M,
Boys,74.84,10,Andre Melendez,Los Fresnos,74.39,151.95,133.81,192.78,478.54,Unlimited,SBD,M,
Boys,74.84,11,Andrew Avila,Harlingen South,72.12,167.83,90.72,176.9,435.45,Unlimited,SBD,M,
Boys,74.84,12,Gilberto Castillo,Edinburg Economedes,69.85,142.88,106.59,165.56,415.04,Unlimited,SBD,M,
Boys,74.84,13,Brandon Hernandez,Brownsville Lopez,71.21,147.42,92.99,147.42,387.82,Unlimited,SBD,M,
Boys,74.84,14,Juan Sierra,McAllen Rowe,70.31,131.54,90.72,145.15,367.41,Unlimited,SBD,M,
Boys,74.84,15,Jeremiah Saldana,Los Fresnos,69.76,97.52,72.57,102.06,272.16,Unlimited,SBD,M,
Boys,74.84,DQ,Fernando Gracia,Brownsville Porter,70.94,176.9,120.2,,,Unlimited,SBD,M,
Boys,82.1,1,Angel Sanchez,Donna North,80.74,294.84,172.37,254.01,721.21,Unlimited,SBD,M,
Boys,82.1,2,Jacob Faz,Edinburg North,76.2,226.8,131.54,238.14,596.47,Unlimited,SBD,M,
Boys,82.1,3,Eduardo Garza,Mission,75.75,226.8,133.81,204.12,564.72,Unlimited,SBD,M,
Boys,82.1,4,Fernando Morales,Edinburg Economedes,80.29,226.8,127.01,210.92,564.72,Unlimited,SBD,M,
Boys,82.1,5,Sean Torres,Los Fresnos,79.56,208.65,133.81,213.19,555.65,Unlimited,SBD,M,
Boys,82.1,6,Joshua Rosales,Edinburg North,79.83,226.8,120.2,195.04,542.04,Unlimited,SBD,M,
Boys,82.1,7,Alek Anzaldua,McAllen Rowe,79.83,210.92,131.54,183.7,526.17,Unlimited,SBD,M,
Boys,82.1,8,Miguel Barrios,Edinburg Economedes,76.2,183.7,102.06,195.04,480.81,Unlimited,SBD,M,
Boys,82.1,9,Brandon Castillo,Brownsville Lopez,79.83,172.37,120.2,163.29,455.86,Unlimited,SBD,M,
Boys,82.1,10,Carlos Abrego,Brownsville Porter,77.11,151.95,97.52,156.49,405.97,Unlimited,SBD,M,
Boys,82.1,NS,Aleks Suarez,McAllen Rowe,,,,,,Unlimited,SBD,M,
Boys,82.1,NS,Juan Sanchez,Los Fresnos,,,,,,Unlimited,SBD,M,
Boys,89.81,1,Orvelin Nunez,Edinburg Economedes,83.46,215.46,142.88,226.8,585.13,Unlimited,SBD,M,
Boys,89.81,2,Jake Flores,Los Fresnos,88,199.58,129.27,208.65,537.51,Unlimited,SBD,M,
Boys,89.81,3,Manuel Hernandez,Edinburg North,88.45,188.24,149.69,170.1,508.02,Unlimited,SBD,M,
Boys,89.81,4,Ivan Martinez,Brownsville Porter,86.73,217.72,68.04,195.04,480.81,Unlimited,SBD,M,
Boys,89.81,5,Angel Arredondo,Edinburg North,86.18,185.97,102.06,145.15,433.18,Unlimited,SBD,M,
Boys,89.81,6,Julio Garcia,Edinburg Economedes,85.73,154.22,92.99,181.44,428.64,Unlimited,SBD,M,
Boys,89.81,7,Carlos Nava,Brownsville Porter,89.09,176.9,92.99,156.49,426.38,Unlimited,SBD,M,
Boys,89.81,NS,Jose Benavides,Donna North,,,,,,Unlimited,SBD,M,
Boys,89.81,NS,Devin Torres,Mission,,,,,,Unlimited,SBD,M,
Boys,89.81,DQ,Ethan Amaya,McAllen Rowe,89.81,195.04,,,,Unlimited,SBD,M,
Boys,99.79,1,Ramon Montalvo,Harlingen South,93.89,240.4,142.88,215.46,598.74,Unlimited,SBD,M,
Boys,99.79,2,Carlos Montemayor,Harlingen South,94.35,190.51,120.2,199.58,510.29,Unlimited,SBD,M,
Boys,99.79,3,Anthony Lerma,Harlingen South,96.16,179.17,120.2,176.9,476.27,Unlimited,SBD,M,
Boys,99.79,4,Eduardo Martinez,Mission,91.63,161.03,111.13,197.31,469.47,Unlimited,SBD,M,
Boys,99.79,5,Alessandro Garfaiz,Mission,98.88,188.24,113.4,165.56,467.2,Unlimited,SBD,M,
Boys,99.79,NS,Angel Gonzalez,Mission,,,,,,Unlimited,SBD,M,
Boys,99.79,DQ,Albert Castillo,Los Fresnos,99.52,226.8,142.88,,,Unlimited,SBD,M,
Boys,109.77,1,Omar Guerrero,Donna North,100.7,297.1,226.8,258.55,782.45,Unlimited,SBD,M,
Boys,109.77,2,Alexavier Gaona,Harlingen South,107.5,258.55,142.88,219.99,621.42,Unlimited,SBD,M,
Boys,109.77,3,Christian Perez,Harlingen South,109.32,204.12,142.88,210.92,557.92,Unlimited,SBD,M,
Boys,109.77,4,Alexis Rodriguez,Mission,105.69,165.56,142.88,165.56,474,Unlimited,SBD,M,
Boys,109.77,5,Santiago Villanueva,McAllen Rowe,101.6,170.1,102.06,167.83,439.98,Unlimited,SBD,M,
Boys,109.77,6,Kevin Martinez,Brownsville Lopez,102.97,179.17,102.06,158.76,439.98,Unlimited,SBD,M,
Boys,109.77,DQ,Domingo Villareal,Mission,109.77,238.14,,,,Unlimited,SBD,M,
Boys,124.74,1,Aaron Palacios,Brownsville Porter,112.94,249.48,140.61,226.8,616.89,Unlimited,SBD,M,
Boys,124.74,2,Rey Ortega,Donna North,115.21,183.7,124.74,188.24,496.68,Unlimited,SBD,M,
Boys,124.74,3,Ian De La Fuente,Harlingen South,113.4,201.85,124.74,156.49,483.08,Unlimited,SBD,M,
Boys,124.74,4,Andre Sandoval,McAllen Rowe,122.02,142.88,90.72,131.54,365.14,Unlimited,SBD,M,
Boys,124.74,NS,Nicolas Galindo,McAllen Rowe,,,,,,Unlimited,SBD,M,
Boys,124.74,DQ,Angel Hernandez,Brownsville Lopez,115.21,,,,,Unlimited,SBD,M,
Boys,139.71,1,Isaiah Loya,Donna North,135.17,331.12,188.24,233.6,752.96,Unlimited,SBD,M,
Boys,139.71,2,Luis Ceballos,Edinburg North,139.25,233.6,142.88,210.92,587.4,Unlimited,SBD,M,
Boys,139.71,3,Edwin Aguillon,McAllen Rowe,136.53,188.24,124.74,199.58,512.56,Unlimited,SBD,M,
Boys,139.71,DQ,Jerry Mancha,Edinburg North,129.73,219.99,165.56,,,Unlimited,SBD,M,
Boys,139.71+,1,Jovanny Lopez,Donna North,141.97,226.8,131.54,179.17,537.51,Unlimited,SBD,M,
Boys,139.71+,2,Felipe Osuna,Edinburg North,169.46,226.8,138.35,154.22,519.36,Unlimited,SBD,M,
Boys,139.71+,3,Jan Mirles,Donna North,166.47,142.88,97.52,154.22,394.63,Unlimited,SBD,M,
