Division,WeightClassKg,Place,Name,Team,BodyweightKg,Best3SquatKg,Best3BenchKg,Best3DeadliftKg,TotalKg,Equipment,Event,Sex,BirthDate
Boys,51.71,1,Fabian Solis,Edinburg Idea College Prep,50.58,217.72,142.88,181.44,542.04,Unlimited,SBD,M,
Boys,51.71,2,Eduardo Soto,Brownsville Veterans Memorial,51.71,174.63,102.06,167.83,444.52,Unlimited,SBD,M,
Boys,51.71,3,Ismael Cavazos,La Villa,51.71,163.29,99.79,176.9,439.98,Unlimited,SBD,M,
Boys,51.71,4,Dashel Burrows,Sharyland Pioneer,51.44,172.37,102.06,163.29,437.72,Unlimited,SBD,M,
Boys,51.71,5,Caleb Moreno,La Joya,50.8,156.49,83.91,158.76,399.16,Unlimited,SBD,M,
Boys,51.71,6,Humberto Soto,Brownsville Veterans Memorial,51.71,142.88,92.99,163.29,399.16,Unlimited,SBD,M,
Boys,51.71,7,Daniel Limon,La Joya Juarez-Lincoln,51.35,151.95,79.38,158.76,390.09,Unlimited,SBD,M,
Boys,51.71,8,Juan Rodriguez,Santa Rosa,51.71,149.69,86.18,149.69,385.55,Unlimited,SBD,M,
Boys,51.71,9,Simon Piedra,Edcouch-Elsa,50.53,115.67,61.23,122.47,299.37,Unlimited,SBD,M,
Boys,51.71,DQ,Leonardo Sauceda,Edinburg Economedes,50.48,,,,,Unlimited,SBD,M,
Boys,51.71,DQ,Humberto Soto,Brownsville Veterans Memorial,51.71,,,,,Unlimited,SBD,M,
Boys,55.79,1,Joey Rincones,Edinburg Idea College Prep,55.61,188.24,108.86,183.7,480.81,Unlimited,SBD,M,
Boys,55.79,2,Frankie-Raye Gonzalez,La Villa,55.34,174.63,92.99,183.7,451.32,Unlimited,SBD,M,
Boys,55.79,3,Erasmo Rodriguez,La Joya,55.07,167.83,92.99,172.37,433.18,Unlimited,SBD,M,
Boys,55.79,4,Maros Castillo,PSJA North,55.79,142.88,72.57,149.69,365.14,Unlimited,SBD,M,
Boys,55.79,5,Ivan Ramirez,La Joya Juarez-Lincoln,54.43,131.54,65.77,142.88,340.19,Unlimited,SBD,M,
Boys,55.79,DQ,Sergio Ramirez,Santa Rosa,55.79,113.4,,,,Unlimited,SBD,M,
Boys,55.79,DQ,Caesar Perez,Edcouch-Elsa,54.52,204.12,129.27,,,Unlimited,SBD,M,
Boys,59.87,1,Diego Cruz,Santa Rosa,59.78,213.19,129.27,179.17,521.63,Unlimited,SBD,M,
Boys,59.87,2,Justin Flores,Edcouch-Elsa,58.51,197.31,113.4,204.12,514.83,Unlimited,SBD,M,
Boys,59.87,3,Dionicio Gutierrez,Mission Veterans Memorial,59.24,183.7,,176.9,360.61,Unlimited,SD,M,
Boys,59.87,4,Markus Mata,La Villa,56.56,136.08,72.57,142.88,351.53,Unlimited,SBD,M,
Boys,59.87,5,Robert Rodriguez,Sharyland Pioneer,59.38,181.44,,170.1,351.53,Unlimited,SD,M,
Boys,59.87,6,Melvin Sandoval,La Joya,59.47,167.83,,174.63,342.46,Unlimited,SD,M,
Boys,59.87,7,Emiliano Castillo,Monte Alto,59.87,165.56,,156.49,322.05,Unlimited,SD,M,
Boys,59.87,8,Jose Saenz,Mission Sharyland,59.87,129.27,,145.15,274.42,Unlimited,SD,M,
Boys,67.13,1,Jonathan Hernandez,Edinburg Economedes,66.72,226.8,129.27,265.35,621.42,Unlimited,SBD,M,
Boys,67.13,2,Esmael Rodriguez,Edcouch-Elsa,65.41,217.72,127.01,213.19,557.92,Unlimited,SBD,M,
Boys,67.13,3,Trystan Rojas,Edcouch-Elsa,64.59,226.8,133.81,190.51,551.11,Unlimited,SBD,M,
Boys,67.13,4,Carlos Medrano,Santa Rosa,66.81,217.72,127.01,204.12,548.85,Unlimited,SBD,M,
Boys,67.13,5,Jose Williams,La Joya Juarez-Lincoln,64.82,206.38,131.54,208.65,546.58,Unlimited,SBD,M,
Boys,67.13,6,Giovanni Pacheco,Edinburg Idea College Prep,65.59,217.72,136.08,190.51,544.31,Unlimited,SBD,M,
Boys,67.13,7,Isaiah Casas,Mission Veterans Memorial,66.04,188.24,149.69,195.04,532.97,Unlimited,SBD,M,
Boys,67.13,8,Anthony Ybarra,Edcouch-Elsa,66.68,226.8,106.59,199.58,532.97,Unlimited,SBD,M,
Boys,67.13,9,Adrian Esparza,Sharyland Pioneer,66.59,188.24,113.4,213.19,514.83,Unlimited,SBD,M,
Boys,67.13,10,Guadelupe Hernandez,McAllen,65.86,165.56,138.35,190.51,494.42,Unlimited,SBD,M,
Boys,67.13,11,Kalel Leon,Mission Veterans Memorial,66,167.83,140.61,183.7,492.15,Unlimited,SBD,M,
Boys,67.13,12,Bernardo Gomez,Edcouch-Elsa,65.05,190.51,88.45,185.97,464.93,Unlimited,SBD,M,
Boys,67.13,13,Matthew Esparza,Sharyland Pioneer,64.36,174.63,95.25,174.63,444.52,Unlimited,SBD,M,
Boys,67.13,14,Sebastian Garza,La Joya,65.41,158.76,92.99,158.76,410.5,Unlimited,SBD,M,
Boys,67.13,15,Edrik Rodriguez,Mission Sharyland,62.51,133.81,79.38,156.49,369.68,Unlimited,SBD,M,
Boys,67.13,DQ,Anthony Alvarez,La Joya,65.05,142.88,,,,Unlimited,SBD,M,
Boys,67.13,DQ,Joaquin Castaneda,Edinburg Economedes,67.13,,,,,Unlimited,SBD,M,
Boys,67.13,DQ,John Pecina,Santa Rosa,66.41,158.76,,,,Unlimited,SBD,M,
Boys,67.13,DQ,Christian Little,McAllen Memorial,66.59,174.63,,,,Unlimited,SBD,M,
Boys,67.13,DQ,Matthew Sanchez,Mission Veterans Memorial,65.09,210.92,111.13,170.1,,Unlimited,SBD,M,
Boys,67.13,DQ,John Luna,La Villa,67.13,183.7,102.06,183.7,,Unlimited,SBD,M,
Boys,67.13,DQ,Eddie Rodriguez,Monte Alto,65.73,206.38,115.67,188.24,,Unlimited,SBD,M,
Boys,74.84,1,Jesus Cantu,Edinburg Economedes,73.66,276.69,165.56,235.87,678.12,Unlimited,SBD,M,
Boys,74.84,2,Jaidan Alaniz,La Joya,74.53,265.35,124.74,256.28,646.37,Unlimited,SBD,M,
Boys,74.84,3,John Torres,Edcouch-Elsa,72.3,256.28,136.08,229.06,621.42,Unlimited,SBD,M,
Boys,74.84,4,Issac Estrada,Edcouch-Elsa,73.12,251.74,136.08,226.8,614.62,Unlimited,SBD,M,
Boys,74.84,5,Damian Villalpando,La Joya,73.98,247.21,142.88,217.72,607.81,Unlimited,SBD,M,
Boys,74.84,6,Victor Hernandez,La Joya Juarez-Lincoln,71.26,217.72,115.67,210.92,544.31,Unlimited,SBD,M,
Boys,74.84,7,Eric Adrian,McAllen Memorial,73.21,226.8,122.47,192.78,542.04,Unlimited,SBD,M,
Boys,74.84,8,Adam Rocha,Sharyland Pioneer,72.8,208.65,111.13,204.12,523.9,Unlimited,SBD,M,
Boys,74.84,9,Julio Marroquin,Monte Alto,72.76,206.38,102.06,183.7,492.15,Unlimited,SBD,M,
Boys,74.84,10,Joshua Tanguma,Mission Sharyland,67.63,181.44,104.33,161.03,446.79,Unlimited,SBD,M,
Boys,74.84,11,Nicolas Martinez,PSJA North,69.08,161.03,113.4,156.49,430.91,Unlimited,SBD,M,
Boys,74.84,12,Diego Mendez,Roma,74.84,181.44,88.45,154.22,424.11,Unlimited,SBD,M,
Boys,74.84,13,Rene Rodriguez,Mission Sharyland,68.81,161.03,97.52,158.76,417.3,Unlimited,SBD,M,
Boys,74.84,14,Carlos Gomez,PSJA North,74.84,154.22,102.06,142.88,399.16,Unlimited,SBD,M,
Boys,74.84,15,Felipe Rincon,La Joya Juarez-Lincoln,73.66,147.42,90.72,147.42,385.55,Unlimited,SBD,M,
Boys,74.84,16,David Solis,Mission Sharyland,72.35,136.08,83.91,147.42,367.41,Unlimited,SBD,M,
Boys,82.1,1,Heston Garza,Edcouch-Elsa,80.47,278.96,161.03,242.67,682.66,Unlimited,SBD,M,
Boys,82.1,2,Juan Flores,Santa Rosa,81.37,249.48,158.76,249.48,657.71,Unlimited,SBD,M,
Boys,82.1,3,Marcelo Cantu,Mission Veterans Memorial,80.1,267.62,149.69,229.06,646.37,Unlimited,SBD,M,
Boys,82.1,4,Andrew Alvarado,PSJA North,82.1,265.35,140.61,208.65,614.62,Unlimited,SBD,M,
Boys,82.1,5,Edgardo Duran,PSJA North,82.1,251.74,124.74,231.33,607.81,Unlimited,SBD,M,
Boys,82.1,6,Leo Trevino,Mission Sharyland,81.37,226.8,127.01,208.65,562.45,Unlimited,SBD,M,
Boys,82.1,7,Josiah Gonzalez,McAllen,75.3,206.38,136.08,195.04,537.51,Unlimited,SBD,M,
Boys,82.1,8,Nestor Gonzalez,Mission Veterans Memorial,78.11,197.31,145.15,183.7,526.17,Unlimited,SBD,M,
Boys,82.1,9,Mason Cantu,McAllen,77.02,174.63,120.2,226.8,521.63,Unlimited,SBD,M,
Boys,82.1,10,Humberto Alvarez,La Joya Juarez-Lincoln,80.65,188.24,99.79,179.17,467.2,Unlimited,SBD,M,
Boys,82.1,11,Samuel Hefley,McAllen,81.01,183.7,120.2,161.03,464.93,Unlimited,SBD,M,
Boys,82.1,DQ,Mario Perez,Mission Sharyland,79.24,163.29,106.59,,,Unlimited,SBD,M,
Boys,82.1,DQ,Jayden Garza,Santa Rosa,81.06,163.29,113.4,,,Unlimited,SBD,M,
Boys,82.1,DQ,Angel Briseno,Brownsville Veterans Memorial,82.1,,,,,Unlimited,SBD,M,
Boys,82.1,DQ,Javier Garcia,McAllen,79.61,,,,,Unlimited,SBD,M,
Boys,82.1,DQ,Angel Castillo #2,McAllen,78.88,195.04,,,,Unlimited,SBD,M,
Boys,82.1,DQ,Mario Martinez,Edcouch-Elsa,80.1,,,,,Unlimited,SBD,M,
Boys,89.81,1,Francisco Marichalar,Edinburg Economedes,88.63,283.5,192.78,222.26,698.53,Unlimited,SBD,M,
Boys,89.81,2,Daniel De La Cruz,McAllen Memorial,89.58,265.35,151.95,240.4,657.71,Unlimited,SBD,M,
Boys,89.81,3,Joel Villafuerte,Edinburg Idea College Prep,89.22,263.08,154.22,238.14,655.44,Unlimited,SBD,M,
Boys,89.81,4,John Trevino,PSJA North,87.63,267.62,136.08,247.21,650.91,Unlimited,SBD,M,
Boys,89.81,5,Tomás Muñoz,Edcouch-Elsa,88.63,263.08,167.83,217.72,648.64,Unlimited,SBD,M,
Boys,89.81,6,Samuel Mata,Sharyland Pioneer,89.77,233.6,149.69,233.6,616.89,Unlimited,SBD,M,
Boys,89.81,7,Andre Zambrano,La Joya,89.81,188.24,120.2,201.85,510.29,Unlimited,SBD,M,
Boys,89.81,8,Nicolas Muñoz,Monte Alto,88.45,197.31,111.13,197.31,505.76,Unlimited,SBD,M,
Boys,89.81,9,Aldana Emmanuel,La Joya Juarez-Lincoln,87.54,176.9,106.59,213.19,496.68,Unlimited,SBD,M,
Boys,89.81,10,Christian Trevino,Edinburg Quest College Prep,88.99,183.7,115.67,188.24,487.61,Unlimited,SBD,M,
Boys,89.81,11,Elian Cruz,Roma,85.87,183.7,104.33,190.51,478.54,Unlimited,SBD,M,
Boys,89.81,12,Anthony Reyes,La Joya,86.05,165.56,127.01,174.63,467.2,Unlimited,SBD,M,
Boys,89.81,13,Julius Luera,PSJA North,89.81,151.95,104.33,149.69,405.97,Unlimited,SBD,M,
Boys,89.81,14,Adrian Ramirez,La Joya,85.64,145.15,90.72,165.56,401.43,Unlimited,SBD,M,
Boys,89.81,15,Joel Leal,McAllen,83.64,149.69,102.06,147.42,399.16,Unlimited,SBD,M,
Boys,89.81,16,Luis Cruz,La Joya Juarez-Lincoln,88.45,136.08,86.18,145.15,367.41,Unlimited,SBD,M,
Boys,89.81,DQ,Anthony Gomez,Edinburg Quest College Prep,88.41,188.24,,,,Unlimited,SBD,M,
Boys,89.81,DQ,Jesus Monroy,Santa Rosa,89.81,149.69,81.65,,,Unlimited,SBD,M,
Boys,89.81,DQ,Dylan Tijerina,Sharyland Pioneer,89.09,272.16,147.42,,,Unlimited,SBD,M,
Boys,99.79,1,Josue Aguilera,La Villa,99.79,310.71,204.12,294.84,809.66,Unlimited,SBD,M,
Boys,99.79,2,Anthony Gonzalez,Edinburg Economedes,98.38,301.64,192.78,258.55,752.96,Unlimited,SBD,M,
Boys,99.79,3,Chris Deleon,Sharyland Pioneer,98.88,249.48,151.95,226.8,628.23,Unlimited,SBD,M,
Boys,99.79,4,Mark Hernandez,Edcouch-Elsa,98.88,249.48,161.03,210.92,621.42,Unlimited,SBD,M,
Boys,99.79,5,Giovanni Garcia,La Joya Juarez-Lincoln,93.17,215.46,140.61,208.65,564.72,Unlimited,SBD,M,
Boys,99.79,6,Mario Palomin,Edcouch-Elsa,98.52,219.99,142.88,199.58,562.45,Unlimited,SBD,M,
Boys,99.79,7,Rene Aguirre,Roma,98.2,215.46,154.22,185.97,555.65,Unlimited,SBD,M,
Boys,99.79,8,Sebastian Vasquez,Mission Sharyland,93.03,226.8,136.08,190.51,553.38,Unlimited,SBD,M,
Boys,99.79,9,Damien Avila,Edinburg Quest College Prep,91.99,219.99,138.35,188.24,546.58,Unlimited,SBD,M,
Boys,99.79,10,Jae P Rivera,La Villa,99.79,204.12,111.13,172.37,487.61,Unlimited,SBD,M,
Boys,99.79,11,Manuel Bofil,Monte Alto,94.44,179.17,120.2,154.22,453.59,Unlimited,SBD,M,
Boys,99.79,12,Andrew Suarez,La Villa,94.26,172.37,102.06,165.56,439.98,Unlimited,SBD,M,
Boys,99.79,13,Adam Gonzalez,McAllen,95.93,167.83,122.47,136.08,426.38,Unlimited,SBD,M,
Boys,99.79,DQ,Rigoberto Martinez,PSJA North,97.98,,,,,Unlimited,SBD,M,
Boys,109.77,1,Gustavo Escandon,McAllen Memorial,103.01,292.57,181.44,256.28,730.28,Unlimited,SBD,M,
Boys,109.77,2,Ramiro Cardoza,Edcouch-Elsa,108.95,260.82,170.1,251.74,682.66,Unlimited,SBD,M,
Boys,109.77,3,Ismael Garcia,Edinburg Economedes,102.97,260.82,172.37,235.87,669.05,Unlimited,SBD,M,
Boys,109.77,4,Perez Yoan,La Joya Juarez-Lincoln,108.77,251.74,142.88,251.74,646.37,Unlimited,SBD,M,
Boys,109.77,5,Alex Tovar,La Joya Juarez-Lincoln,107.95,260.82,147.42,231.33,639.57,Unlimited,SBD,M,
Boys,109.77,6,Alexis Salinas,Edinburg Idea College Prep,106.1,267.62,129.27,222.26,619.15,Unlimited,SBD,M,
Boys,109.77,7,Felipe Balderas,Edinburg Economedes,102.24,226.8,174.63,215.46,616.89,Unlimited,SBD,M,
Boys,109.77,8,Ruben Abundis,Edinburg Economedes,102.65,226.8,149.69,231.33,607.81,Unlimited,SBD,M,
Boys,109.77,9,Aaron Olivarez,Sharyland Pioneer,106.68,251.74,138.35,204.12,594.21,Unlimited,SBD,M,
Boys,109.77,10,Diego Galvan,Edinburg Economedes,109.5,215.46,151.95,215.46,582.87,Unlimited,SBD,M,
Boys,109.77,11,Timothy Cantu,PSJA North,109.77,231.33,136.08,197.31,564.72,Unlimited,SBD,M,
Boys,109.77,12,Isaias Rojas,Monte Alto,109.77,192.78,151.95,188.24,532.97,Unlimited,SBD,M,
Boys,109.77,13,Juan Ybarra,Monte Alto,105.37,174.63,158.76,176.9,510.29,Unlimited,SBD,M,
Boys,109.77,14,Luis Delgado,Sharyland Pioneer,108.05,195.04,127.01,185.97,508.02,Unlimited,SBD,M,
Boys,109.77,15,Tyler Jimenez,Santa Rosa,109.77,208.65,113.4,183.7,505.76,Unlimited,SBD,M,
Boys,109.77,16,Javier Zapata,McAllen,108.18,183.7,117.93,161.03,462.66,Unlimited,SBD,M,
Boys,109.77,17,Jose Garza,La Villa,101.74,136.08,77.11,136.08,349.27,Unlimited,SBD,M,
Boys,109.77,DQ,Matthew Reyes,PSJA North,109.77,210.92,163.29,,,Unlimited,SBD,M,
Boys,124.74,1,Julian Moreno,Santa Rosa,122.02,288.03,210.92,285.76,784.71,Unlimited,SBD,M,
Boys,124.74,2,Isaac Garza,La Villa,118.21,294.84,176.9,240.4,712.14,Unlimited,SBD,M,
Boys,124.74,3,Arturo Gonzalez,Edcouch-Elsa,122.2,290.3,158.76,247.21,696.26,Unlimited,SBD,M,
Boys,124.74,4,Alex Ortiz,Edcouch-Elsa,122.65,258.55,163.29,222.26,644.1,Unlimited,SBD,M,
Boys,124.74,5,Julio Garcia,La Joya Juarez-Lincoln,121.52,226.8,147.42,192.78,566.99,Unlimited,SBD,M,
Boys,124.74,6,Nick Paez,Roma,119.48,244.94,115.67,204.12,564.72,Unlimited,SBD,M,
Boys,124.74,DQ,Sebastian Herrera,McAllen Memorial,115.98,224.53,,,,Unlimited,SBD,M,
Boys,124.74,DQ,Agustin Gutierrez,Monte Alto,111.27,240.4,,,,Unlimited,SBD,M,
Boys,139.71,1,Rosario Perez,Edcouch-Elsa,127.46,317.51,204.12,242.67,764.3,Unlimited,SBD,M,
Boys,139.71,2,Gerardo Rios,Santa Rosa,132.49,310.71,183.7,235.87,730.28,Unlimited,SBD,M,
Boys,139.71,3,Ethan Hinojosa,Sharyland Pioneer,127.64,272.16,149.69,215.46,637.3,Unlimited,SBD,M,
Boys,139.71,4,Aaron Izaguirre,McAllen,128.37,201.85,149.69,199.58,551.11,Unlimited,SBD,M,
Boys,139.71,5,Joey Garza,La Villa,135.94,199.58,122.47,183.7,505.76,Unlimited,SBD,M,
Boys,139.71,6,Daniel Cerda,Santa Rosa,132.95,192.78,142.88,158.76,494.42,Unlimited,SBD,M,
Boys,139.71,7,Diego Diaz,Roma,127.82,181.44,113.4,167.83,462.66,Unlimited,SBD,M,
Boys,139.71+,1,Nelson Quintero,Edinburg Idea College Prep,155.45,340.19,208.65,258.55,807.39,Unlimited,SBD,M,
Boys,139.71+,2,Adalberto Sanchez,Sharyland Pioneer,147.01,317.51,181.44,238.14,737.09,Unlimited,SBD,M,
Boys,139.71+,3,Rene Hernandez,Roma,150.18,249.48,147.42,188.24,585.13,Unlimited,SBD,M,
Boys,139.71+,4,Saul Luna,Edcouch-Elsa,140.61,256.28,136.08,188.24,580.6,Unlimited,SBD,M,
Boys,139.71+,5,Alexander Sosa,La Joya,163.29,192.78,133.81,188.24,514.83,Unlimited,SBD,M,
