Division,WeightClassKg,Place,Name,Team,BodyweightKg,Best3SquatKg,Best3BenchKg,Best3DeadliftKg,TotalKg,Equipment,Event,Sex,BirthDate
Boys,55.79,1,Jaxon Tran,Bishop Lynch,55.52,142.88,88.45,158.76,390.09,Unlimited,SBD,M,
Boys,55.79,2,Marcelo Malaga,West Mesquite,54.88,127.01,68.04,142.88,337.93,Unlimited,SBD,M,
Boys,55.79,3,Ethan Gardner,North Mesquite,52.71,90.72,52.16,113.4,256.28,Unlimited,SBD,M,
Boys,55.79,DQ,Ezekiel Frazier,Mesquite,55.79,142.88,,,,Unlimited,SBD,M,
Boys,59.87,1,Andy Mejia,Carrollton Creekview,58.69,183.7,111.13,197.31,492.15,Unlimited,SBD,M,
Boys,59.87,2,Carter Sullivan,Kemp,59.01,142.88,104.33,142.88,390.09,Unlimited,SBD,M,
Boys,59.87,3,Emanuel Mathews,Sunnyvale,57.38,151.95,83.91,149.69,385.55,Unlimited,SBD,M,
Boys,67.13,1,Ei'Morrian Briscoe Williams,Mesquite,66.9,188.24,104.33,192.78,485.34,Unlimited,SBD,M,
Boys,67.13,2,Luke Drake,Italy,67.09,188.24,111.13,183.7,483.08,Unlimited,SBD,M,
Boys,67.13,3,Raymond Jackson,Carrollton Creekview,67,165.56,113.4,179.17,458.13,Unlimited,SBD,M,
Boys,67.13,4,Ashton Jimenez,Mesquite Poteet,67.04,163.29,97.52,181.44,442.25,Unlimited,SBD,M,
Boys,67.13,5,Aidan Garza,Bishop Lynch,66.41,165.56,92.99,158.76,417.3,Unlimited,SBD,M,
Boys,67.13,6,Tuma Johnson,North Crowley,66.5,167.83,79.38,147.42,394.63,Unlimited,SBD,M,
Boys,67.13,7,Kyle Rinehart,West Mesquite,67.04,158.76,88.45,142.88,390.09,Unlimited,SBD,M,
Boys,67.13,8,Jack Winterle,Dallas Jesuit,65.09,142.88,97.52,147.42,387.82,Unlimited,SBD,M,
Boys,67.13,9,Jeremiah Robertson,North Crowley,62.41,147.42,86.18,147.42,381.02,Unlimited,SBD,M,
Boys,67.13,10,Tito Siewczynski,Dallas Jesuit,65.45,127.01,70.31,145.15,342.46,Unlimited,SBD,M,
Boys,67.13,11,Cole Dowd,Kemp,62.01,77.11,56.7,92.99,226.8,Unlimited,SBD,M,
Boys,67.13,DQ,Austin Cate,Italy,61.01,147.42,97.52,,,Unlimited,SBD,M,
Boys,74.84,1,James Darwin,Sunnyvale,73.21,195.04,115.67,201.85,512.56,Unlimited,SBD,M,
Boys,74.84,2,Gage Gutierrez,Dallas Jesuit,74.75,161.03,127.01,190.51,478.54,Unlimited,SBD,M,
Boys,74.84,3,Queandre McCoy,Dallas Life Oak Cliff,73.89,161.03,102.06,195.04,458.13,Unlimited,SBD,M,
Boys,74.84,4,Brayden Neal,Carrollton Creekview,73.48,142.88,111.13,183.7,437.72,Unlimited,SBD,M,
Boys,74.84,5,Josue Cuna,Mesquite Poteet,71.99,149.69,95.25,181.44,426.38,Unlimited,SBD,M,
Boys,74.84,6,Reese Mattorano,Dallas Jesuit,74.75,165.56,86.18,174.63,426.38,Unlimited,SBD,M,
Boys,74.84,7,Caleb Van Duinen,Dallas Jesuit,74.57,161.03,95.25,167.83,424.11,Unlimited,SBD,M,
Boys,74.84,8,Chris Cortez,Mesquite Poteet,72.21,151.95,92.99,163.29,408.23,Unlimited,SBD,M,
Boys,74.84,9,Maddox Henderson,Kemp,73.8,147.42,97.52,154.22,399.16,Unlimited,SBD,M,
Boys,74.84,10,Camren Greene,North Mesquite,73.89,124.74,74.84,127.01,326.59,Unlimited,SBD,M,
Boys,74.84,11,Marlowe Polma,Dallas Jesuit,74.84,97.52,56.7,120.2,274.42,Unlimited,SBD,M,
Boys,74.84,DQ,Lanceden Surratt,Kemp,70.4,142.88,,,,Unlimited,SBD,M,
Boys,74.84,DQ,Levi Kulick,Kemp,68.99,90.72,,,,Unlimited,SBD,M,
Boys,74.84,DQ,Steven Ayala,Carrollton Creekview,71.8,142.88,99.79,,,Unlimited,SBD,M,
Boys,74.84,DQ,Austin Cragun,Sunnyvale,72.89,192.78,,,,Unlimited,SBD,M,
Boys,74.84,DQ,Ethan Vincent,Kemp,73.75,,,,,Unlimited,SBD,M,
Boys,74.84,DQ,Anthony Evans,Mesquite,72.48,,,,,Unlimited,SBD,M,
Boys,82.1,1,David Okorie,Mesquite,80.38,170.1,106.59,206.38,483.08,Unlimited,SBD,M,
Boys,82.1,2,Caiden Pendola,Dallas Jesuit,79.92,174.63,106.59,199.58,480.81,Unlimited,SBD,M,
Boys,82.1,3,Maurice Harris,Carrollton Creekview,81.78,183.7,108.86,183.7,476.27,Unlimited,SBD,M,
Boys,82.1,4,Jadi Mateen,Denton Braswell,76.79,181.44,127.01,165.56,474,Unlimited,SBD,M,
Boys,82.1,5,Dakarai Spencer,Mesquite,81.96,183.7,102.06,174.63,460.4,Unlimited,SBD,M,
Boys,82.1,6,Zaire Scott,Mesquite Poteet,78.65,174.63,97.52,183.7,455.86,Unlimited,SBD,M,
Boys,82.1,7,Lukas Williams,Mesquite,82.1,174.63,102.06,174.63,451.32,Unlimited,SBD,M,
Boys,82.1,DQ,Ezra Melen,Mesquite Horn,79.29,,,,,Unlimited,SBD,M,
Boys,89.81,1,Aiden McGinnis,Bishop Lynch,88,242.67,158.76,233.6,635.03,Unlimited,SBD,M,
Boys,89.81,2,DaMarcus Cannon,Carrollton Creekview,89.49,226.8,142.88,217.72,587.4,Unlimited,SBD,M,
Boys,89.81,3,Robert White,Sunnyvale,86.09,226.8,127.01,199.58,553.38,Unlimited,SBD,M,
Boys,89.81,4,Chime Nwanyanwu,Sunnyvale,85.5,204.12,111.13,229.06,544.31,Unlimited,SBD,M,
Boys,89.81,5,Haven Garrett,Mesquite,86,204.12,129.27,204.12,537.51,Unlimited,SBD,M,
Boys,89.81,6,Zavius Alexander,Mesquite Poteet,83.28,183.7,136.08,192.78,512.56,Unlimited,SBD,M,
Boys,89.81,7,Aj Blanks,Denton Braswell,85.87,181.44,124.74,192.78,498.95,Unlimited,SBD,M,
Boys,89.81,8,Xavier Darden,Mesquite,89.72,183.7,102.06,188.24,474,Unlimited,SBD,M,
Boys,89.81,9,Jaydon Redmon,West Mesquite,89.58,174.63,104.33,188.24,467.2,Unlimited,SBD,M,
Boys,89.81,10,Aiden Kilgore,Kemp,87.82,183.7,115.67,163.29,462.66,Unlimited,SBD,M,
Boys,99.79,1,Roderick Hudson,Mesquite Horn,99.38,231.33,161.03,242.67,635.03,Unlimited,SBD,M,
Boys,99.79,2,Thomas Battle,Denton Braswell,99.79,226.8,149.69,206.38,582.87,Unlimited,SBD,M,
Boys,99.79,3,Kendall Perkins,Mesquite,91.4,240.4,102.06,233.6,576.06,Unlimited,SBD,M,
Boys,99.79,4,Cole Drake,Bishop Lynch,97.3,206.38,158.76,197.31,562.45,Unlimited,SBD,M,
Boys,99.79,5,Ethan Samuel,Sunnyvale,97.7,204.12,127.01,208.65,539.77,Unlimited,SBD,M,
Boys,99.79,6,Abel Gallegos,Kemp,98.61,219.99,129.27,190.51,539.77,Unlimited,SBD,M,
Boys,99.79,7,Evandre Wright,Mesquite Poteet,99.79,170.1,142.88,217.72,530.7,Unlimited,SBD,M,
Boys,99.79,8,Selah Smith,Sunnyvale,95.8,199.58,111.13,206.38,517.1,Unlimited,SBD,M,
Boys,99.79,9,Ashton Harrington,Mesquite Poteet,91.76,195.04,120.2,183.7,498.95,Unlimited,SBD,M,
Boys,99.79,10,Sammy Solorzano,North Mesquite,92.99,167.83,79.38,161.03,408.23,Unlimited,SBD,M,
Boys,99.79,DQ,Adam Flores,North Mesquite,90.13,142.88,,,,Unlimited,SBD,M,
Boys,99.79,DQ,Mark Dean,North Crowley,95.8,192.78,,,,Unlimited,SBD,M,
Boys,99.79,DQ,Colt Ottmo,Kemp,96.21,,,,,Unlimited,SBD,M,
Boys,99.79,DQ,Neonte Peterson,Mesquite,93.8,217.72,,,,Unlimited,SBD,M,
Boys,109.77,1,Blaze Flanagan,Sunnyvale,109.5,272.16,145.15,204.12,621.42,Unlimited,SBD,M,
Boys,109.77,2,Destin Deans,Carrollton Creekview,104.01,208.65,158.76,240.4,607.81,Unlimited,SBD,M,
Boys,109.77,3,Jeremiah Hidalgo,Italy,107.59,249.48,151.95,204.12,605.55,Unlimited,SBD,M,
Boys,109.77,4,Braylen Tennison,Mesquite Poteet,108.91,226.8,129.27,226.8,582.87,Unlimited,SBD,M,
Boys,109.77,5,Victor Chatman,West Mesquite,102.33,231.33,133.81,185.97,551.11,Unlimited,SBD,M,
Boys,109.77,6,Michael Walker,Mesquite,107.14,195.04,129.27,210.92,535.24,Unlimited,SBD,M,
Boys,109.77,7,Joseph Diles,North Crowley,108.68,222.26,120.2,183.7,526.17,Unlimited,SBD,M,
Boys,109.77,8,Hayden Chavez,Bishop Lynch,106.5,204.12,129.27,190.51,523.9,Unlimited,SBD,M,
Boys,109.77,9,Rodi Baker,Mesquite Poteet,109.72,179.17,122.47,219.99,521.63,Unlimited,SBD,M,
Boys,109.77,10,Kemona Kanayo,Sunnyvale,108.5,185.97,99.79,179.17,464.93,Unlimited,SBD,M,
Boys,109.77,11,Jo'Quavian Poe,West Mesquite,106.91,170.1,102.06,181.44,453.59,Unlimited,SBD,M,
Boys,109.77,12,Jessie Mendez,North Mesquite,108.5,165.56,79.38,165.56,410.5,Unlimited,SBD,M,
Boys,109.77,13,Angel Guerrero,North Mesquite,109.59,158.76,97.52,154.22,410.5,Unlimited,SBD,M,
Boys,124.74,1,Alyric Brown,Sunnyvale,122.79,310.71,158.76,278.96,748.43,Unlimited,SBD,M,
Boys,124.74,2,Cristobal Sanchez,Mesquite,124.28,272.16,142.88,238.14,653.17,Unlimited,SBD,M,
Boys,124.74,3,Pedro Borges,Denton Braswell,122.2,272.16,122.47,226.8,621.42,Unlimited,SBD,M,
Boys,124.74,4,Hagan Carr,Italy,120.7,242.67,151.95,188.24,582.87,Unlimited,SBD,M,
Boys,124.74,5,Nick Sam,Italy,123.42,229.06,136.08,181.44,546.58,Unlimited,SBD,M,
Boys,124.74,6,Randy Rodriguez,West Mesquite,117.12,195.04,129.27,204.12,528.44,Unlimited,SBD,M,
Boys,124.74,7,Kelechukwu Ekwu,Sunnyvale,117.98,204.12,108.86,208.65,521.63,Unlimited,SBD,M,
Boys,124.74,8,DeMorey Beasley,North Crowley,112.4,197.31,113.4,204.12,514.83,Unlimited,SBD,M,
Boys,124.74,9,Connor Neff,Sunnyvale,117.62,206.38,117.93,190.51,514.83,Unlimited,SBD,M,
Boys,124.74,10,Marcus Watson,West Mesquite,124.65,192.78,108.86,192.78,494.42,Unlimited,SBD,M,
Boys,124.74,11,Anthony Smith,North Crowley,124.42,229.06,102.06,151.95,483.08,Unlimited,SBD,M,
Boys,124.74,12,Cailen Greene,North Mesquite,121.52,174.63,113.4,165.56,453.59,Unlimited,SBD,M,
Boys,124.74,13,Thomas Westerman,Dallas Jesuit,117.44,147.42,120.2,129.27,396.89,Unlimited,SBD,M,
Boys,139.71,1,Travis Chinamhora,Carrollton Creekview,128.32,242.67,176.9,199.58,619.15,Unlimited,SBD,M,
Boys,139.71,2,Leo Cruz,West Mesquite,135.4,242.67,142.88,215.46,601.01,Unlimited,SBD,M,
Boys,139.71,3,Henry Fenuku,North Crowley,129.59,242.67,127.01,215.46,585.13,Unlimited,SBD,M,
Boys,139.71,4,Keith Dotie,Mesquite Poteet,129.46,174.63,136.08,206.38,517.1,Unlimited,SBD,M,
Boys,139.71,5,Matthew Phillips,Carrollton Creekview,139.62,163.29,115.67,192.78,471.74,Unlimited,SBD,M,
Boys,139.71,6,Micheal Mobley,North Mesquite,132.22,172.37,104.33,147.42,424.11,Unlimited,SBD,M,
Boys,139.71+,1,Jaxon Brown,Mesquite,149.5,183.7,142.88,204.12,530.7,Unlimited,SBD,M,
Boys,139.71+,2,Caleb Sims,Mesquite,160.8,183.7,124.74,192.78,501.22,Unlimited,SBD,M,
Boys,139.71+,3,Gavin Hartley,Mesquite Horn,158.21,149.69,90.72,195.04,435.45,Unlimited,SBD,M,
Boys,139.71+,4,Ramiro Arzola,North Mesquite,152.32,172.37,83.91,158.76,415.04,Unlimited,SBD,M,
